<?xml version="1.0" encoding="UTF-8" standalone="no"?>
<!-- Created with Inkscape (http://www.inkscape.org/) -->

<svg
   width="47.97187mm"
   height="35.094318mm"
   viewBox="0 0 47.97187 35.094319"
   version="1.1"
   id="svg5"
   xml:space="preserve"
   inkscape:export-filename="beefy miracle v4.svg"
   inkscape:export-xdpi="96"
   inkscape:export-ydpi="96"
   inkscape:version="1.2.2 (b0a8486541, 2022-12-01)"
   sodipodi:docname="beefy_miracle_v4.svg"
   xmlns:inkscape="http://www.inkscape.org/namespaces/inkscape"
   xmlns:sodipodi="http://sodipodi.sourceforge.net/DTD/sodipodi-0.dtd"
   xmlns="http://www.w3.org/2000/svg"
   xmlns:svg="http://www.w3.org/2000/svg"><sodipodi:namedview
     id="namedview7"
     pagecolor="#ffffff"
     bordercolor="#999999"
     borderopacity="1"
     inkscape:showpageshadow="0"
     inkscape:pageopacity="0"
     inkscape:pagecheckerboard="0"
     inkscape:deskcolor="#d1d1d1"
     inkscape:document-units="mm"
     showgrid="false"
     showguides="true"
     inkscape:zoom="0.95056163"
     inkscape:cx="508.12066"
     inkscape:cy="278.78256"
     inkscape:window-width="1920"
     inkscape:window-height="1011"
     inkscape:window-x="0"
     inkscape:window-y="0"
     inkscape:window-maximized="1"
     inkscape:current-layer="layer1"><inkscape:grid
       type="xygrid"
       id="grid105985"
       originx="0"
       originy="0" /></sodipodi:namedview><defs
     id="defs2"><inkscape:path-effect
       effect="powerstroke"
       id="path-effect85452"
       is_visible="true"
       lpeversion="1"
       offset_points="0.24950983,0.2382361 | 0.88993752,0.26183613 | 1.762341,0.1206696"
       not_jump="false"
       sort_points="true"
       interpolator_type="CentripetalCatmullRom"
       interpolator_beta="0.2"
       start_linecap_type="zerowidth"
       linejoin_type="round"
       miter_limit="4"
       scale_width="1"
       end_linecap_type="zerowidth" /><inkscape:path-effect
       effect="powerstroke"
       id="path-effect85432"
       is_visible="true"
       lpeversion="1"
       offset_points="0.056374194,0.17413353 | 0.51590124,0.26367846 | 0.89725075,0.20735627"
       not_jump="false"
       sort_points="true"
       interpolator_type="CentripetalCatmullRom"
       interpolator_beta="0.2"
       start_linecap_type="round"
       linejoin_type="round"
       miter_limit="4"
       scale_width="1"
       end_linecap_type="round" /><inkscape:path-effect
       effect="powerstroke"
       id="path-effect83240"
       is_visible="true"
       lpeversion="1"
       offset_points="0.22476165,0.16923015 | 1.0121379,0.25016423 | 1.8,0.15000001"
       not_jump="false"
       sort_points="true"
       interpolator_type="CentripetalCatmullRom"
       interpolator_beta="0.2"
       start_linecap_type="zerowidth"
       linejoin_type="round"
       miter_limit="4"
       scale_width="1"
       end_linecap_type="zerowidth" /><inkscape:path-effect
       effect="powerstroke"
       id="path-effect81050"
       is_visible="true"
       lpeversion="1"
       offset_points="0.24006654,0.28679612 | 1.0014805,0.22012213 | 1.8,0.16481359"
       not_jump="false"
       sort_points="true"
       interpolator_type="CentripetalCatmullRom"
       interpolator_beta="0.2"
       start_linecap_type="zerowidth"
       linejoin_type="round"
       miter_limit="4"
       scale_width="1"
       end_linecap_type="zerowidth" /><inkscape:path-effect
       effect="powerstroke"
       id="path-effect74492"
       is_visible="true"
       lpeversion="1"
       offset_points="0.27974985,0.14513366 | 0.5,0.16481359 | 0.83010516,0.11831178"
       not_jump="false"
       sort_points="true"
       interpolator_type="CentripetalCatmullRom"
       interpolator_beta="0.2"
       start_linecap_type="zerowidth"
       linejoin_type="round"
       miter_limit="4"
       scale_width="1"
       end_linecap_type="round" /><inkscape:path-effect
       effect="powerstroke"
       id="path-effect74488"
       is_visible="true"
       lpeversion="1"
       offset_points="0.36389342,0.11220688 | 1.0494391,0.15673879 | 1.6848412,0.094353299"
       not_jump="false"
       sort_points="true"
       interpolator_type="CentripetalCatmullRom"
       interpolator_beta="0.2"
       start_linecap_type="round"
       linejoin_type="round"
       miter_limit="4"
       scale_width="1"
       end_linecap_type="round" /><inkscape:path-effect
       effect="powerstroke"
       id="path-effect74484"
       is_visible="true"
       lpeversion="1"
       offset_points="0.2,0.055555364 | 1,0.055555364 | 1.8,0.055555364"
       not_jump="false"
       sort_points="true"
       interpolator_type="CentripetalCatmullRom"
       interpolator_beta="0.2"
       start_linecap_type="zerowidth"
       linejoin_type="round"
       miter_limit="4"
       scale_width="1"
       end_linecap_type="zerowidth" /><inkscape:path-effect
       effect="powerstroke"
       id="path-effect74465"
       is_visible="true"
       lpeversion="1"
       offset_points="0.21718726,0.24321214 | 2.1287123,0.27478234 | 3.9306136,0.23148838"
       not_jump="false"
       sort_points="true"
       interpolator_type="CentripetalCatmullRom"
       interpolator_beta="0.2"
       start_linecap_type="zerowidth"
       linejoin_type="round"
       miter_limit="4"
       scale_width="1"
       end_linecap_type="round" /><linearGradient
       id="linearGradient38280"
       inkscape:swatch="solid"><stop
         style="stop-color:#000000;stop-opacity:1;"
         offset="0"
         id="stop38278" /></linearGradient></defs><g
     inkscape:label="Layer 1"
     inkscape:groupmode="layer"
     id="layer1"
     transform="translate(-87.586844,-119.07329)"><g
       id="g58165"
       transform="translate(5.2916669)"><path
         style="fill:#e8e8e8;fill-opacity:1;fill-rule:evenodd;stroke:#000000;stroke-width:0.3;stroke-linecap:round;stroke-linejoin:round;stroke-dasharray:none"
         d="m 128.37935,130.16541 c 0,0 1.8261,2.73915 0.85598,5.02177 0,0 1.42664,0.79892 -0.057,2.1685 -1.48371,1.36957 -1.48371,-0.97012 -1.48371,-0.97012 l -0.74185,-0.39946 c 0,0 -3.59513,-4.16578 1.42664,-5.82069 z"
         id="path78860" /><g
         id="g85440"
         transform="matrix(1.0987572,0,0,1.0987572,10.691612,-33.80239)"><path
           style="fill:#000000;fill-opacity:1;fill-rule:nonzero;stroke:none;stroke-width:0.3;stroke-linecap:round;stroke-linejoin:round;stroke-dasharray:none"
           d="m 75.439905,157.94351 c 0.03293,-0.025 0.01721,-0.15589 -0.341582,-0.7916 -0.01077,-0.0191 -0.07816,-0.13798 -0.08892,-0.15705 -0.225378,-0.3976 -0.675869,-1.18471 -1.036608,-2.05308 -0.159736,-0.38452 -0.307709,-0.79735 -0.418024,-1.21796 -0.107192,-0.40871 -0.177019,-0.8179 -0.190477,-1.21221 -0.01354,-0.3966 0.03031,-0.76732 0.141645,-1.10419 0.115905,-0.35068 0.303251,-0.65974 0.568531,-0.92565 0.02533,-0.0254 0.05067,-0.049 0.07597,-0.0709 0.103293,-0.0895 0.210515,-0.15499 0.321716,-0.19901 0.132832,-0.0526 0.276138,-0.0764 0.432305,-0.0702 0.152886,0.006 0.319008,0.041 0.498623,0.10707 0.176792,0.065 0.363211,0.15898 0.558045,0.28067 0.389302,0.24313 0.796163,0.58689 1.205424,0.997 0.418057,0.41893 0.828083,0.89647 1.211292,1.38317 0.876467,1.11317 1.61322,2.27409 2.035266,2.96411 0.113763,0.18599 0.213876,0.35288 0.297864,0.49376 -0.149821,-0.25131 0.510156,0.85517 0.360335,0.60386 0.09584,0.16017 0.157532,0.26252 0.208895,0.34715 0.02817,0.0464 0.04026,0.0661 0.06843,0.11254 0.0099,0.0164 0.01797,0.0298 0.02421,0.0406 0.0078,0.0135 0.01313,0.0235 0.01646,0.0313 0.0033,-0.008 0.0068,-0.0193 0.0091,-0.036 0.0018,-0.0134 0.0028,-0.03 0.0023,-0.0506 -7.8e-4,-0.0341 -0.0056,-0.079 -0.01736,-0.1376 -0.01913,-0.0955 -0.05628,-0.22581 -0.121089,-0.39907 -0.06651,-0.17782 -0.160946,-0.39737 -0.287593,-0.65517 -0.07392,-0.15047 -0.163107,-0.32389 -0.268706,-0.51927 -0.409938,-0.75844 -1.094806,-1.90287 -1.9792,-3.06562 -0.382255,-0.50257 -0.797703,-1.0006 -1.227169,-1.44148 -0.41895,-0.43008 -0.850328,-0.80507 -1.279516,-1.0788 -0.215529,-0.13746 -0.431246,-0.24981 -0.645368,-0.33063 -0.217748,-0.0822 -0.434776,-0.1321 -0.648627,-0.14208 -0.22066,-0.0103 -0.433937,0.0221 -0.636186,0.10109 -0.168356,0.0657 -0.323925,0.16164 -0.466594,0.28464 -0.03479,0.03 -0.06909,0.0618 -0.102858,0.0955 -0.32235,0.32172 -0.551202,0.6987 -0.690724,1.12261 -0.133088,0.40436 -0.180022,0.83644 -0.162196,1.27976 0.0177,0.44017 0.09903,0.88645 0.21837,1.31979 0.122957,0.44648 0.286119,0.87865 0.460783,1.27443 0.402992,0.91315 0.880073,1.66473 1.159983,2.06238 0.03796,0.0539 0.07394,0.10376 0.10777,0.14949 0.443595,0.5997 0.608018,0.62051 0.625436,0.60726 z"
           id="path83238"
           inkscape:path-effect="#path-effect83240"
           inkscape:original-d="m 75.439905,157.94351 c 0,0 -3.96626,-5.2149 -1.54243,-7.63873 2.42382,-2.42383 7.49183,6.61044 7.49183,7.19804" /><path
           style="fill:#e8e8e8;fill-opacity:1;fill-rule:evenodd;stroke:#000000;stroke-width:0.273036;stroke-linecap:round;stroke-linejoin:round;stroke-dasharray:none"
           d="m 75.680637,159.72524 c 0,0 -2.285206,0.20774 -0.675175,-1.76584 0,0 1.817778,-1.40229 1.765843,1.24647 0,0 1.661967,1.66197 1.246476,2.54489 -0.415491,0.88292 -3.31434,2.63586 -4.830096,3.11619 -0.357018,0.11314 -2.441017,0.4155 2.492952,-5.14171 z"
           id="path85436"
           sodipodi:nodetypes="cccssc" /></g><g
         id="g85464"
         transform="matrix(1.0987572,0,0,1.0987572,10.691612,-34.373046)"><path
           style="fill:#000000;fill-opacity:1;fill-rule:nonzero;stroke:none;stroke-width:0.4;stroke-linecap:round;stroke-linejoin:round;stroke-dasharray:none"
           d="m 91.892563,147.14647 c 0.0564,-0.008 0.139438,-0.16978 0.146143,-0.94852 0.0036,-0.4235 -0.012,-1.27123 0.06527,-2.11046 0.03523,-0.38259 0.09062,-0.7854 0.178541,-1.18179 0.08509,-0.38361 0.199692,-0.75691 0.35345,-1.09856 0.153074,-0.34012 0.341869,-0.64201 0.572656,-0.8913 0.02773,-0.03 0.05603,-0.0591 0.08492,-0.0875 0.200782,-0.19704 0.446061,-0.37263 0.749687,-0.4978 0.323886,-0.13346 0.651631,-0.19594 0.983818,-0.19329 0.319707,0.003 0.638765,0.0654 0.954798,0.17779 0.315473,0.11217 0.620299,0.27096 0.909398,0.45756 0.29908,0.19303 0.57643,0.41265 0.825121,0.63314 0.572134,0.50723 1.034294,1.05956 1.25582,1.32555 0.0025,0.003 0.04283,0.0515 0.04535,0.0546 0.406972,0.49033 0.484829,0.55857 0.51375,0.54122 v 0 c 0.01025,-0.006 0.03498,-0.138 -0.319236,-0.68408 -0.01265,-0.0195 -0.0259,-0.0397 -0.03978,-0.0606 -0.203117,-0.30582 -0.621518,-0.88118 -1.20473,-1.44716 -0.24885,-0.2415 -0.532915,-0.48613 -0.845851,-0.70501 -0.302236,-0.2114 -0.631299,-0.39871 -0.981922,-0.53631 -0.351931,-0.13811 -0.720863,-0.22428 -1.101786,-0.23766 -0.397526,-0.014 -0.793367,0.0519 -1.18294,0.2038 -0.37437,0.14601 -0.678476,0.3561 -0.92541,0.59172 -0.03537,0.0337 -0.06995,0.0684 -0.103758,0.10379 -0.281253,0.29475 -0.506161,0.64358 -0.685161,1.02296 -0.179655,0.38077 -0.311991,0.79005 -0.408586,1.20133 -0.0999,0.42537 -0.161784,0.8538 -0.197886,1.25581 -0.08251,0.91883 -0.03457,1.72543 0.02852,2.18964 0.109329,0.80076 0.295699,0.92624 0.329795,0.92113 z"
           id="path85450"
           inkscape:path-effect="#path-effect85452"
           inkscape:original-d="m 91.892563,147.14647 c 0,0 -0.881393,-5.87595 2.056577,-7.05114 2.93798,-1.17519 5.58215,3.23177 5.58215,3.23177"
           sodipodi:nodetypes="csc" /><path
           style="fill:#e8e8e8;fill-opacity:1;fill-rule:evenodd;stroke:#000000;stroke-width:0.273036;stroke-linecap:round;stroke-linejoin:round;stroke-dasharray:none"
           d="m 99.006249,147.81243 c 0,0 0,-2.64876 0.67517,-2.75263 0,0 -1.61003,-1.50616 -0.25968,-2.38908 1.350351,-0.88292 2.181341,1.40228 1.713911,2.07746 0,0 1.76584,0.31162 2.64876,1.29841 0.88292,0.9868 -3.11619,3.47975 -4.778161,1.76584 z"
           id="path85454" /></g><g
         id="g3441"
         transform="translate(-2.1166667)"><path
           style="fill:#d09151;fill-opacity:1;fill-rule:evenodd;stroke:#000000;stroke-width:0.4;stroke-linecap:round;stroke-linejoin:round;stroke-dasharray:none"
           d="m 105.99824,145.27399 c 0,0 -7.361462,-6.16309 -1.71197,-12.44031 0,0 0.85599,-1.4837 6.44842,-3.481 0,0 6.6196,-6.50548 10.15768,-4.10873 3.53806,2.39676 1.08424,3.6522 0.68477,4.79352 -0.39945,1.14131 -9.70114,17.29089 -15.5789,15.23652 z"
           id="path74441" /><path
           style="fill:#aa430f;fill-opacity:1;fill-rule:evenodd;stroke:#000000;stroke-width:0.4;stroke-linecap:round;stroke-linejoin:round;stroke-dasharray:none"
           d="m 112.67388,140.47588 c 0,0 -4.67937,2.39675 -5.53536,-0.79892 -0.85599,-3.19568 2.73915,-4.79351 2.73915,-4.79351 0,0 16.26371,-10.9566 19.00286,-8.10333 2.73914,2.85329 0.7836,4.2757 -1.25544,6.44842 -2.4177,2.5762 -14.95121,7.24734 -14.95121,7.24734 z"
           id="path74368"
           sodipodi:nodetypes="cscssc" /><path
           style="fill:#ffcf00;fill-opacity:1;fill-rule:nonzero;stroke:none;stroke-width:0.329627;stroke-linecap:round;stroke-linejoin:round;stroke-dasharray:none"
           d="m 108.4327,136.92384 v 0 c -0.025,0.0319 -0.075,0.19023 0.36802,0.56263 0.0416,0.035 0.089,0.073 0.14219,0.1138 0.26865,0.2059 0.83242,0.58871 1.49917,0.86964 0.27044,0.11395 0.575,0.2179 0.88519,0.27482 0.28429,0.0522 0.59282,0.0684 0.89029,0.001 0.14323,-0.0323 0.28511,-0.0843 0.41993,-0.16172 0.13181,-0.0757 0.25403,-0.17422 0.36243,-0.29814 0.10594,-0.1211 0.19633,-0.26375 0.2699,-0.42849 0.0721,-0.1615 0.12796,-0.34386 0.16699,-0.54819 0.13672,-0.71712 0.23059,-1.34202 0.34125,-1.8175 0.0547,-0.23502 0.11204,-0.42782 0.17831,-0.58345 0.0327,-0.0769 0.0667,-0.14246 0.10212,-0.19815 0.0353,-0.0556 0.0717,-0.10079 0.10924,-0.13767 0.0374,-0.0368 0.0775,-0.0666 0.12135,-0.0905 0.0442,-0.024 0.0951,-0.0435 0.15518,-0.057 0.12326,-0.0277 0.28571,-0.0302 0.50193,0.007 0.22116,0.0376 0.48581,0.11401 0.80088,0.23241 0.3258,0.12244 0.69815,0.28694 1.11859,0.49096 a 0.1666962,0.05055982 32.743094 0 0 0.094,0.0267 c 0.007,-5.7e-4 0.043,0.002 0.0968,0.003 0.0495,6e-4 0.12132,-7.7e-4 0.208,-0.009 0.16142,-0.0156 0.40029,-0.0579 0.64577,-0.17622 0.11821,-0.057 0.23963,-0.13246 0.35474,-0.23246 0.11363,-0.0987 0.21961,-0.22005 0.30971,-0.36839 0.0897,-0.14763 0.16172,-0.31886 0.21091,-0.51632 0.0494,-0.19836 0.0753,-0.42103 0.0741,-0.67037 -0.002,-0.48179 0.007,-0.8845 0.0633,-1.21435 0.0292,-0.17129 0.0692,-0.30963 0.11944,-0.41995 0.026,-0.0571 0.0543,-0.10555 0.0843,-0.14658 0.0311,-0.0424 0.0644,-0.0774 0.0997,-0.10613 0.0749,-0.0609 0.16771,-0.10098 0.28611,-0.11844 0.13973,-0.0206 0.30807,-0.008 0.50067,0.034 0.24944,0.0548 0.51445,0.15473 0.75615,0.26179 0.15926,0.0705 0.30568,0.14305 0.4213,0.20268 0.28221,0.14557 0.52833,0.29116 0.60178,0.33448 a 0.23148838,0.23148838 90 0 0 0.23518,-0.3988 c -0.0732,-0.0432 -0.33182,-0.1951 -0.62418,-0.34686 -0.12041,-0.0625 -0.27498,-0.13994 -0.4444,-0.21619 -0.25401,-0.11431 -0.55,-0.23005 -0.84184,-0.29745 -0.22433,-0.0518 -0.45345,-0.0769 -0.66984,-0.0486 -0.19026,0.0249 -0.36854,0.0908 -0.52312,0.21131 -0.0709,0.0552 -0.13416,0.11992 -0.1901,0.19327 -0.0538,0.0705 -0.10011,0.1481 -0.14,0.23179 -0.0762,0.15978 -0.129,0.34209 -0.16586,0.54156 -0.0698,0.37774 -0.0831,0.82109 -0.0855,1.30256 -0.001,0.21231 -0.0252,0.39099 -0.0646,0.54113 -0.039,0.14892 -0.0931,0.26961 -0.15477,0.36794 -0.0619,0.0987 -0.13282,0.17698 -0.20729,0.23973 -0.0758,0.0639 -0.1568,0.11288 -0.23792,0.15057 -0.17064,0.0793 -0.34196,0.10847 -0.46389,0.11884 -0.064,0.005 -0.11601,0.006 -0.14972,0.005 -0.0357,-6.8e-4 -0.0577,-0.004 -0.0499,-0.004 a 0.16857382,0.05350514 33.479483 0 0 0.094,0.0267 c -0.42805,-0.21036 -0.81524,-0.3854 -1.16065,-0.51941 -0.3325,-0.129 -0.63192,-0.22224 -0.89956,-0.27293 -0.2608,-0.0494 -0.50189,-0.0605 -0.72186,-0.0184 -0.10935,0.0209 -0.2128,0.0549 -0.30988,0.10304 -0.0967,0.048 -0.18404,0.10854 -0.26286,0.18043 -0.0783,0.0714 -0.14665,0.1526 -0.20688,0.24106 -0.06,0.0882 -0.11229,0.18395 -0.15866,0.28532 -0.0924,0.20196 -0.16494,0.43397 -0.22837,0.68542 -0.1245,0.49356 -0.23489,1.16088 -0.36995,1.84187 -0.0322,0.16171 -0.0751,0.29401 -0.12433,0.40211 -0.0499,0.10973 -0.10644,0.19498 -0.16542,0.26174 -0.06,0.068 -0.12529,0.11978 -0.1944,0.15944 -0.0712,0.0409 -0.14986,0.0708 -0.23599,0.0906 -0.18265,0.0422 -0.39632,0.0388 -0.62887,7e-5 -0.25107,-0.0418 -0.51223,-0.12276 -0.76071,-0.21823 -0.58232,-0.22372 -1.1933,-0.57244 -1.45405,-0.71415 -0.0567,-0.0308 -0.10729,-0.058 -0.15388,-0.0824 -0.49221,-0.25756 -0.61474,-0.19109 -0.63976,-0.15919 z"
           id="path74463"
           inkscape:path-effect="#path-effect74465"
           inkscape:original-d="m 108.4327,136.92384 c 0,0 4.11585,3.22811 4.68076,0.32281 0.56493,-2.90531 0.40352,-4.03515 3.87376,-2.34038 0,0 1.61405,0.16141 1.61405,-1.69477 0,-1.85616 0.16141,-3.22811 3.30883,-1.37195" /><path
           style="fill:#d09151;fill-opacity:1;fill-rule:evenodd;stroke:#000000;stroke-width:0.4;stroke-linecap:round;stroke-linejoin:round;stroke-dasharray:none"
           d="m 107.04229,142.81391 c 0,0 0.91305,-5.6495 9.70116,-5.53537 0,0 6.56254,-6.27721 10.72834,-4.85057 4.16578,1.42663 0,7.24733 -0.39946,7.36146 -0.39946,0.11413 -5.4783,3.8234 -5.76364,3.88046 -0.28532,0.057 -9.45449,10.32197 -15.10399,1.81919"
           id="path74370"
           sodipodi:nodetypes="ccsssc" /><g
           id="g74480"
           transform="matrix(2.2222253,0,0,2.2222253,-150.91582,-78.361137)"><path
             style="fill:#000000;fill-opacity:1;fill-rule:evenodd;stroke:none;stroke-width:0.0866927;stroke-linecap:round;stroke-linejoin:miter;stroke-dasharray:none;stroke-opacity:1"
             d="m 124.79421,93.751892 c 0,0 -0.0171,-0.110806 -0.13637,-0.02557 -0.11934,0.08524 -0.23014,0.153421 -0.26424,0.281274 -0.0341,0.127851 -0.009,0.19604 0.11082,0.230134 0.11932,0.0341 0.23865,0.0341 0.32389,-0.0085 0.0852,-0.04262 0.12784,-0.09376 0.12784,-0.09376 z"
             id="path74476" /><ellipse
             style="fill:#ffffff;fill-opacity:1;fill-rule:evenodd;stroke:none;stroke-width:0.0923069;stroke-linecap:round;stroke-linejoin:miter;stroke-dasharray:none;stroke-opacity:1"
             id="ellipse74478"
             cx="-140.96027"
             cy="174.53331"
             rx="0.11086674"
             ry="0.10697874"
             transform="matrix(0.32157082,-0.94688553,0.97394012,-0.22680531,0,0)" /></g><path
           style="fill:#000000;fill-opacity:1;fill-rule:nonzero;stroke:none;stroke-width:0.111111;stroke-linecap:round;stroke-linejoin:miter;stroke-dasharray:none;stroke-opacity:1"
           d="m 127.62492,128.98589 c 0.008,0.007 0.0377,0.0204 0.0952,-0.0206 0.009,-0.007 0.0196,-0.0148 0.0312,-0.0246 0.0449,-0.0379 0.11137,-0.10292 0.18606,-0.16679 0.0324,-0.0277 0.0652,-0.0541 0.0965,-0.0761 0.031,-0.0217 0.0579,-0.0373 0.08,-0.0463 0.0109,-0.004 0.0193,-0.007 0.0254,-0.008 0.006,-9.9e-4 0.009,-6.8e-4 0.01,-7.9e-4 0.004,0.002 0.007,0.007 0.009,0.0165 6.2e-4,0.002 0.001,0.007 0.001,0.0138 1e-5,0.007 -5.9e-4,0.0151 -0.002,0.0253 -0.003,0.02 -0.009,0.0451 -0.0181,0.0754 -0.0181,0.0589 -0.0476,0.13246 -0.0864,0.21767 -0.0382,0.084 -0.0842,0.17634 -0.13407,0.27196 -0.0511,0.098 -0.10553,0.19787 -0.15845,0.29312 -0.15437,0.27789 -0.28274,0.49563 -0.33754,0.60714 -0.0696,0.14162 -0.0539,0.17611 -0.045,0.18156 0.008,0.005 0.0478,0.005 0.14036,-0.12446 0.0684,-0.0954 0.20265,-0.31517 0.35767,-0.60086 0.0524,-0.0966 0.10592,-0.19864 0.15585,-0.29902 0.0487,-0.0979 0.0936,-0.19352 0.13098,-0.28107 0.0377,-0.0884 0.0674,-0.16785 0.0859,-0.23398 0.01,-0.0341 0.0164,-0.0653 0.0198,-0.0929 0.002,-0.0143 0.003,-0.028 0.002,-0.0411 -2.2e-4,-0.0133 -0.002,-0.0266 -0.005,-0.0394 -0.005,-0.0205 -0.0134,-0.0405 -0.0266,-0.0579 -0.006,-0.008 -0.014,-0.0161 -0.0226,-0.0227 -0.009,-0.007 -0.0178,-0.0117 -0.0277,-0.0156 -0.0193,-0.008 -0.0395,-0.01 -0.0587,-0.009 -0.0188,9.7e-4 -0.0377,0.005 -0.0559,0.0108 -0.0361,0.0115 -0.0738,0.031 -0.11021,0.0539 -0.0377,0.0236 -0.0757,0.0518 -0.11105,0.0806 -0.0823,0.067 -0.15011,0.13563 -0.1886,0.18274 -0.01,0.0122 -0.0181,0.0232 -0.0246,0.033 -0.0403,0.0611 -0.0222,0.0911 -0.015,0.0975 z"
           id="path74482"
           inkscape:path-effect="#path-effect74484"
           inkscape:original-d="m 127.62492,128.98589 c 0,0 0.5253,-0.58707 0.58709,-0.33987 0.0618,0.24718 -0.83426,1.69941 -0.83426,1.69941" /><path
           style="fill:#000000;fill-opacity:1;fill-rule:nonzero;stroke:none;stroke-width:0.329627;stroke-linecap:round;stroke-linejoin:round;stroke-dasharray:none"
           d="m 124.65211,127.65425 c 0,0 0,0 0,0 -0.001,4.6e-4 -0.049,0.0152 -0.1796,0.0729 -0.0477,0.0211 -0.1005,0.0459 -0.1554,0.0745 -0.0603,0.0314 -0.13292,0.0716 -0.20301,0.12047 -0.0587,0.0409 -0.11983,0.0907 -0.17174,0.15034 -0.0503,0.0577 -0.0942,0.12709 -0.11715,0.20988 -0.0114,0.0411 -0.0173,0.0847 -0.0161,0.13021 0.001,0.0457 0.009,0.0917 0.0245,0.13751 0.0311,0.0935 0.0902,0.18148 0.17158,0.26346 0.0316,0.0319 0.063,0.0606 0.0942,0.0863 0.12657,0.10457 0.257,0.16721 0.38421,0.19487 0.15798,0.0343 0.29789,0.0108 0.40252,-0.0266 0.0859,-0.0307 0.15394,-0.072 0.2006,-0.10178 0.0188,-0.012 0.036,-0.0236 0.0518,-0.0347 0.0747,-0.0526 0.0983,-0.075 0.1,-0.0767 a 0.0943533,0.0943533 90 0 0 -0.13344,-0.13344 c 0.002,-0.002 -0.009,0.0185 -0.0694,0.0571 -0.0129,0.008 -0.0272,0.0164 -0.0429,0.0241 -0.0402,0.0199 -0.0968,0.0394 -0.16305,0.048 -0.08,0.0104 -0.17091,0.005 -0.2698,-0.0319 -0.0785,-0.0291 -0.16471,-0.0786 -0.25927,-0.1592 -0.0236,-0.0201 -0.0482,-0.0426 -0.0737,-0.0678 -0.0581,-0.0575 -0.0905,-0.10657 -0.10706,-0.14514 -0.008,-0.0187 -0.0128,-0.0358 -0.0153,-0.0515 -0.002,-0.0157 -0.003,-0.0316 -7.9e-4,-0.0479 0.004,-0.0337 0.0185,-0.071 0.0456,-0.11179 0.0281,-0.0423 0.0669,-0.0836 0.11136,-0.12184 0.0527,-0.0454 0.11094,-0.0845 0.16383,-0.11491 0.0473,-0.0272 0.0947,-0.0507 0.13757,-0.07 0.11778,-0.053 0.16066,-0.0613 0.15923,-0.0609 a 0.11220688,0.11220688 90 0 0 -0.0694,-0.21342 z"
           id="path74486"
           inkscape:path-effect="#path-effect74488"
           inkscape:original-d="m 124.68679,127.76096 c 0,0 -1.14131,0.37092 -0.57066,0.94158 0.57066,0.57065 1.05572,0.0856 1.05572,0.0856" /><path
           style="fill:#000000;fill-opacity:1;fill-rule:nonzero;stroke:none;stroke-width:0.329627;stroke-linecap:round;stroke-linejoin:round;stroke-dasharray:none"
           d="m 122.45387,129.83936 c -0.0224,0.0155 -0.0249,0.17342 0.20934,0.49158 0.14874,0.20203 0.36114,0.42197 0.6437,0.65409 0.28686,0.23564 0.67292,0.47915 1.10698,0.64158 0.14696,0.055 0.28471,0.0954 0.41395,0.12616 0.0785,0.0187 0.15898,0.0348 0.24164,0.0475 0.30928,0.0477 0.55558,0.0325 0.7085,0.0125 a 0.11831178,0.11831178 90 0 0 -0.0306,-0.23464 c -0.13688,0.0179 -0.36092,0.0373 -0.6417,-0.008 -0.0752,-0.0121 -0.14872,-0.0279 -0.2201,-0.047 -0.11725,-0.0313 -0.2426,-0.0755 -0.37425,-0.13461 -0.39454,-0.17709 -0.72414,-0.43065 -0.99381,-0.65724 -0.2273,-0.19098 -0.49674,-0.46137 -0.63682,-0.59275 -0.20792,-0.195 -0.40694,-0.31311 -0.42683,-0.29934 z"
           id="path74490"
           inkscape:path-effect="#path-effect74492"
           inkscape:original-d="m 122.45387,129.83936 c 0,0 1.45265,2.09829 3.30881,1.85617" /></g><path
         style="fill:#000000;fill-opacity:1;fill-rule:nonzero;stroke:none;stroke-width:0.329627;stroke-linecap:round;stroke-linejoin:round;stroke-dasharray:none"
         d="m 121.22907,139.27885 c -0.0357,0.0243 -0.0941,0.29016 0.51939,1.19758 0.0177,0.0262 0.036,0.053 0.055,0.0804 0.36599,0.52914 1.07559,1.43506 1.96609,2.34881 0.38287,0.39288 0.80271,0.79012 1.23811,1.14867 0.42153,0.34714 0.85752,0.65793 1.29024,0.89469 0.21573,0.11804 0.43067,0.2177 0.64287,0.29447 0.21425,0.0775 0.42584,0.13175 0.63284,0.15802 0.21115,0.0268 0.41657,0.0244 0.61409,-0.0114 0.20374,-0.0369 0.39479,-0.10853 0.57193,-0.21512 0.004,-0.002 0.008,-0.005 0.0122,-0.007 0.32509,-0.19826 0.59818,-0.46624 0.81835,-0.79969 0.20977,-0.31771 0.36475,-0.68462 0.47313,-1.08508 0.1067,-0.39429 0.16664,-0.81529 0.1909,-1.24248 0.0248,-0.43737 0.0121,-0.8773 -0.0246,-1.29585 -0.0852,-0.97196 -0.2947,-1.80377 -0.47641,-2.32899 -0.0479,-0.13846 -0.0949,-0.25931 -0.13973,-0.36322 -0.0769,-0.17837 -0.15623,-0.32521 -0.23207,-0.44185 -0.074,-0.11377 -0.14284,-0.19616 -0.20301,-0.25481 -0.0369,-0.036 -0.07,-0.0625 -0.0987,-0.0822 -0.0389,-0.0267 -0.069,-0.0404 -0.0896,-0.049 0.0124,0.019 0.0264,0.0469 0.0431,0.0875 0.0123,0.0298 0.026,0.0663 0.0417,0.1111 0.0254,0.0724 0.0563,0.16755 0.0936,0.28832 0.0387,0.12547 0.083,0.27416 0.13495,0.45288 0.03,0.1032 0.0642,0.22313 0.10046,0.35861 0.14063,0.52513 0.32496,1.32714 0.40097,2.25766 0.0329,0.40264 0.0442,0.82194 0.0208,1.23555 -0.0229,0.4043 -0.0785,0.79518 -0.17556,1.15516 -0.0986,0.36557 -0.23689,0.68835 -0.41763,0.95948 -0.18867,0.28303 -0.41836,0.50208 -0.6868,0.65919 -0.003,0.002 -0.007,0.004 -0.0101,0.006 -0.13146,0.0758 -0.27204,0.12389 -0.42226,0.14573 -0.14626,0.0213 -0.30319,0.0178 -0.47105,-0.0107 -0.16498,-0.028 -0.33917,-0.0799 -0.52185,-0.15489 -0.18092,-0.0743 -0.36801,-0.17029 -0.55997,-0.2856 -0.38604,-0.23192 -0.78221,-0.53613 -1.17428,-0.88104 -0.40427,-0.35565 -0.79762,-0.74876 -1.1622,-1.13796 -0.79571,-0.84944 -1.59624,-1.8453 -1.95718,-2.26994 -0.0212,-0.025 -0.042,-0.0492 -0.0622,-0.0728 -0.7003,-0.81565 -0.92303,-0.88559 -0.97551,-0.84977 z"
         id="path81048"
         inkscape:path-effect="#path-effect81050"
         inkscape:original-d="m 121.22907,139.27885 c 0,0 4.90764,7.19027 7.41853,5.70656 2.51089,-1.48371 1.02718,-7.19027 0.3424,-7.76093" /><g
         id="g85444"
         transform="matrix(1.0987572,0,0,1.0987572,10.691612,-34.373046)"><path
           style="fill:#000000;fill-opacity:1;fill-rule:nonzero;stroke:none;stroke-width:0.3;stroke-linecap:round;stroke-linejoin:round;stroke-dasharray:none"
           d="m 84.757952,163.59346 c -0.102437,0.0619 -0.341408,0.20901 -0.674324,0.39569 -0.938612,0.52632 -3.923449,1.90939 -5.994577,2.72656 -0.0078,0.003 -0.216878,0.0854 -0.224643,0.0884 -2.094427,0.82291 -3.921575,1.48342 -5.238313,1.9018 -0.600725,0.19088 -1.082839,0.32931 -1.30568,0.39443 a 0.20735627,0.20735627 90 0 0 0.116318,0.39806 c 0.235768,-0.0689 0.695324,-0.20768 1.312809,-0.39657 1.292904,-0.39552 3.232555,-0.98412 5.308477,-1.80719 0.07384,-0.0293 0.149187,-0.0594 0.225929,-0.0903 2.631688,-1.06096 4.576224,-2.10436 5.972119,-2.91262 0.328128,-0.19 0.58401,-0.34094 0.682099,-0.40025 a 0.17413353,0.17413353 90 0 0 -0.180214,-0.29802 z"
           id="path85430"
           sodipodi:nodetypes="cc"
           inkscape:path-effect="#path-effect85432"
           inkscape:original-d="m 84.848059,163.74247 c -3.929327,2.37611 -9.345003,4.35174 -13.469485,5.55694" /><path
           style="fill:#e8e8e8;fill-opacity:1;fill-rule:evenodd;stroke:#000000;stroke-width:0.273036;stroke-linecap:round;stroke-linejoin:round;stroke-dasharray:none"
           d="m 69.344383,170.51301 c 0,0 -2.752635,3.01231 -3.999113,-1.71391 0,0 -0.571302,-4.4146 2.596827,-6.49206 0,0 2.337144,-0.72712 1.817777,6.44012 l 0.103873,-1.1426 c 0,0 1.765842,0.0519 1.610032,1.40229 -0.155808,1.35035 -1.506159,1.7139 -2.129396,1.50616 z"
           id="path85434" /></g></g></g></svg>
