<?xml version="1.0" encoding="UTF-8" standalone="no"?>
<!-- Created with Inkscape (http://www.inkscape.org/) -->

<svg
   width="24.586657mm"
   height="52.27887mm"
   viewBox="0 0 24.586656 52.278871"
   version="1.1"
   id="svg5"
   xml:space="preserve"
   inkscape:export-filename="beefy miracle v4.svg"
   inkscape:export-xdpi="96"
   inkscape:export-ydpi="96"
   inkscape:version="1.2.2 (b0a8486541, 2022-12-01)"
   sodipodi:docname="beefy_miracle_v4.svg"
   xmlns:inkscape="http://www.inkscape.org/namespaces/inkscape"
   xmlns:sodipodi="http://sodipodi.sourceforge.net/DTD/sodipodi-0.dtd"
   xmlns="http://www.w3.org/2000/svg"
   xmlns:svg="http://www.w3.org/2000/svg"><sodipodi:namedview
     id="namedview7"
     pagecolor="#ffffff"
     bordercolor="#999999"
     borderopacity="1"
     inkscape:showpageshadow="0"
     inkscape:pageopacity="0"
     inkscape:pagecheckerboard="0"
     inkscape:deskcolor="#d1d1d1"
     inkscape:document-units="mm"
     showgrid="false"
     showguides="true"
     inkscape:zoom="1.5587434"
     inkscape:cx="71.211208"
     inkscape:cy="221.33213"
     inkscape:window-width="1920"
     inkscape:window-height="1011"
     inkscape:window-x="0"
     inkscape:window-y="0"
     inkscape:window-maximized="1"
     inkscape:current-layer="layer1"><inkscape:grid
       type="xygrid"
       id="grid105985"
       originx="0"
       originy="0" /></sodipodi:namedview><defs
     id="defs2"><inkscape:path-effect
       effect="powerstroke"
       id="path-effect134888"
       is_visible="true"
       lpeversion="1"
       offset_points="0.2,0.1156258 | 0.38676423,0.1147866 | 0.72807042,0.072207245"
       not_jump="false"
       sort_points="true"
       interpolator_type="CentripetalCatmullRom"
       interpolator_beta="0.2"
       start_linecap_type="round"
       linejoin_type="round"
       miter_limit="4"
       scale_width="1"
       end_linecap_type="zerowidth" /><inkscape:path-effect
       effect="powerstroke"
       id="path-effect134884"
       is_visible="true"
       lpeversion="1"
       offset_points="0.2,0.1156258 | 1,0.1156258 | 1.5211021,0.062689393"
       not_jump="false"
       sort_points="true"
       interpolator_type="CentripetalCatmullRom"
       interpolator_beta="0.2"
       start_linecap_type="zerowidth"
       linejoin_type="round"
       miter_limit="4"
       scale_width="1"
       end_linecap_type="zerowidth" /><inkscape:path-effect
       effect="powerstroke"
       id="path-effect134880"
       is_visible="true"
       lpeversion="1"
       offset_points="0.2,0.1156258 | 1.4938007,0.12960418 | 1.7644883,0.097017291"
       not_jump="false"
       sort_points="true"
       interpolator_type="CentripetalCatmullRom"
       interpolator_beta="0.2"
       start_linecap_type="round"
       linejoin_type="round"
       miter_limit="4"
       scale_width="1.1"
       end_linecap_type="zerowidth" /><inkscape:path-effect
       effect="powerstroke"
       id="path-effect48307"
       is_visible="true"
       lpeversion="1"
       offset_points="0.14511599,0.18807296 | 0.51123484,0.2624052 | 0.93204278,0.19778577"
       not_jump="false"
       sort_points="true"
       interpolator_type="CentripetalCatmullRom"
       interpolator_beta="0.2"
       start_linecap_type="square"
       linejoin_type="round"
       miter_limit="4"
       scale_width="1"
       end_linecap_type="square" /><inkscape:path-effect
       effect="powerstroke"
       id="path-effect48292"
       is_visible="true"
       lpeversion="1"
       offset_points="0.039319623,0.13242682 | 0.49680016,0.30283799 | 0.85090457,0.24691716"
       not_jump="false"
       sort_points="true"
       interpolator_type="CentripetalCatmullRom"
       interpolator_beta="0.2"
       start_linecap_type="square"
       linejoin_type="round"
       miter_limit="4"
       scale_width="1"
       end_linecap_type="square" /><inkscape:path-effect
       effect="powerstroke"
       id="path-effect38866"
       is_visible="true"
       lpeversion="1"
       offset_points="0.2,0.15275829 | 0.67584594,0.35514796 | 0.9621866,0.16285939"
       not_jump="false"
       sort_points="true"
       interpolator_type="CentripetalCatmullRom"
       interpolator_beta="0.2"
       start_linecap_type="round"
       linejoin_type="round"
       miter_limit="4"
       scale_width="1"
       end_linecap_type="round" /><inkscape:path-effect
       effect="powerstroke"
       id="path-effect38842"
       is_visible="true"
       lpeversion="1"
       offset_points="0.23012204,0.13836876 | 1.0078541,0.24996928 | 1.810725,0.10010971"
       not_jump="false"
       sort_points="true"
       interpolator_type="CentripetalCatmullRom"
       interpolator_beta="0.2"
       start_linecap_type="zerowidth"
       linejoin_type="round"
       miter_limit="4"
       scale_width="1"
       end_linecap_type="zerowidth" /><inkscape:path-effect
       effect="powerstroke"
       id="path-effect34892"
       is_visible="true"
       lpeversion="1"
       offset_points="0.20574463,0.06098686 | 0.49582236,0.08848453 | 0.80871445,0.066114817"
       not_jump="false"
       sort_points="true"
       interpolator_type="CentripetalCatmullRom"
       interpolator_beta="0.2"
       start_linecap_type="round"
       linejoin_type="round"
       miter_limit="4"
       scale_width="1"
       end_linecap_type="round" /><inkscape:path-effect
       effect="powerstroke"
       id="path-effect34886"
       is_visible="true"
       lpeversion="1"
       offset_points="0.20574463,0.06098686 | 0.49582236,0.08848453 | 0.80871445,0.066114817"
       not_jump="false"
       sort_points="true"
       interpolator_type="CentripetalCatmullRom"
       interpolator_beta="0.2"
       start_linecap_type="round"
       linejoin_type="round"
       miter_limit="4"
       scale_width="1"
       end_linecap_type="round" /><inkscape:path-effect
       effect="powerstroke"
       id="path-effect34742"
       is_visible="true"
       lpeversion="1"
       offset_points="0.2,0.14247271 | 1.9596411,0.26738455 | 3.6131163,0.21926837"
       not_jump="false"
       sort_points="true"
       interpolator_type="CentripetalCatmullRom"
       interpolator_beta="0.2"
       start_linecap_type="zerowidth"
       linejoin_type="round"
       miter_limit="4"
       scale_width="1"
       end_linecap_type="zerowidth" /><linearGradient
       id="linearGradient38280"
       inkscape:swatch="solid"><stop
         style="stop-color:#000000;stop-opacity:1;"
         offset="0"
         id="stop38278" /></linearGradient></defs><g
     inkscape:label="Layer 1"
     inkscape:groupmode="layer"
     id="layer1"
     transform="translate(-114.41933,15.629287)"><g
       id="g134994"><g
         id="g40864"
         transform="translate(5.4033966,4.7260938)"><path
           style="fill:#000000;fill-opacity:1;fill-rule:nonzero;stroke:none;stroke-width:0.3;stroke-linecap:round;stroke-linejoin:round;stroke-dasharray:none;paint-order:normal"
           d="m 127.97612,-16.753106 0,0 c 0.01,0.03366 0.10148,0.05815 0.60553,0.0057 -0.14415,0.01501 0.2392,-0.02488 0.0951,-0.0099 0.30411,-0.03137 0.9027,-0.09308 1.53007,-0.05954 0.27722,0.01482 0.56821,0.0482 0.85446,0.111891 0.2777,0.06179 0.54594,0.150994 0.79174,0.276029 0.24641,0.125342 0.46534,0.284149 0.6498,0.482503 0.19184,0.206277 0.34522,0.454025 0.45525,0.749508 0.007,0.01903 0.0139,0.03807 0.0204,0.05711 0.0939,0.273555 0.13988,0.570182 0.13574,0.891741 -0.004,0.324735 -0.0594,0.665216 -0.15877,1.017244 -0.19937,0.706076 -0.56093,1.403378 -0.94085,2.010329 -0.42552,0.67978 -0.88648,1.2629858 -1.12817,1.5654707 -0.0548,0.068543 -0.15569,0.1935102 -0.21045,0.262053 -0.27705,0.3454311 -0.29103,0.4114566 -0.27527,0.4278558 0.01,0.00998 0.0934,0.015131 0.42198,-0.2916111 0.0666,-0.062123 0.1484,-0.1414805 0.24375,-0.2387992 0.28487,-0.2907613 0.77596,-0.8305482 1.25622,-1.5214882 0.41846,-0.602036 0.83238,-1.32491 1.07159,-2.082276 0.11997,-0.379841 0.19383,-0.761435 0.20643,-1.137114 0.0125,-0.373445 -0.0359,-0.729717 -0.1489,-1.064429 -0.008,-0.0232 -0.016,-0.04641 -0.0246,-0.06962 -0.13089,-0.355898 -0.32012,-0.661705 -0.5626,-0.916664 -0.23243,-0.244408 -0.50436,-0.432205 -0.79939,-0.573223 -0.29318,-0.140132 -0.60432,-0.231791 -0.91404,-0.288929 -0.31942,-0.05893 -0.63753,-0.08117 -0.93311,-0.08198 -0.68216,-0.0018 -1.27368,0.109486 -1.59133,0.187284 -0.0337,0.0083 -0.0656,0.01643 -0.0956,0.02443 -0.50553,0.134911 -0.55984,0.249652 -0.55503,0.266412 z"
           id="path38840"
           inkscape:path-effect="#path-effect38842"
           inkscape:original-d="m 127.97612,-16.753106 c 0,0 4.22462,-1.212283 5.21649,1.469435 0.99187,2.681718 -2.79193,6.3185675 -2.79193,6.3185675" /><path
           style="fill:#e8e8e8;fill-opacity:1;fill-rule:evenodd;stroke:#000000;stroke-width:0.3;stroke-linecap:round;stroke-linejoin:round;stroke-dasharray:none;paint-order:normal"
           d="m 124.54131,-17.377615 c 0,0 1.35923,-0.955132 2.20416,0.367359 0,0 0.77145,-1.579642 1.57964,0.110207 0.80819,1.68985 -0.88166,1.06534 -0.88166,1.06534 0,0 -0.29389,0.771453 -0.80819,1.028604 -0.5143,0.257151 -2.60825,-0.293887 -2.09395,-2.57151 z"
           id="path36866" /></g><g
         id="g16392"><path
           style="fill:#d09151;fill-opacity:1;fill-rule:evenodd;stroke:#000000;stroke-width:0.4;stroke-linecap:round;stroke-linejoin:round;stroke-dasharray:none"
           d="m 129.97532,-10.50262 c 0,0 6.40686,-3.175576 5.96117,4.2341018 l -0.22285,5.9054573 c 0,0 7.57681,14.8750689 -10.36241,13.0922879"
           id="path34653" /><path
           style="fill:#aa430f;fill-opacity:1;fill-rule:evenodd;stroke:#000000;stroke-width:0.4;stroke-linecap:round;stroke-linejoin:round;stroke-dasharray:none"
           d="m 124.06743,-9.3552942 c 0,0 -0.11143,-5.9611698 3.17557,-6.0725938 3.287,-0.111423 3.62127,6.2954408 3.62127,6.2954408 -0.15143,1.211445 4.12374,22.9938212 -3.05024,20.4327062 -7.13342,-2.5466338 -3.7466,-20.6555532 -3.7466,-20.6555532 z"
           id="path34655"
           sodipodi:nodetypes="cscsc" /><path
           style="fill:#e8e8e8;fill-opacity:1;fill-rule:evenodd;stroke:#000000;stroke-width:0.230309;stroke-linecap:round;stroke-linejoin:round;stroke-dasharray:none"
           d="m 125.27109,-10.882183 c 0,0 0.36322,2.9658508 3.65833,2.4485508 0,0 -3.19132,-2.0691968 -3.65833,-2.4485508 z"
           id="path34813" /><path
           style="fill:#d09151;fill-opacity:1;fill-rule:evenodd;stroke:#000000;stroke-width:0.4;stroke-linecap:round;stroke-linejoin:round;stroke-dasharray:none"
           d="m 125.74122,12.729227 c -0.63877,0 -8.65936,3.119866 -6.68542,-7.9110839 0,0 0.33427,-6.2397282 0.33427,-6.6297122 0,-0.389983 -0.19241,-11.0663689 5.84974,-8.1339321 0,0 3.34272,1.281372 2.00563,10.5852541 0,0 1.33709,9.4710171 0.11142,10.4738301"
           id="path34519"
           sodipodi:nodetypes="ccsccc" /><g
           id="g20572"
           transform="matrix(2.1852716,0,0,2.1852716,-25.515684,-197.48968)"><ellipse
             style="fill:#000000;fill-opacity:1;fill-rule:evenodd;stroke:none;stroke-width:0.09834;stroke-dasharray:none;stroke-opacity:1"
             id="ellipse20562"
             cx="88.84404"
             cy="61.635918"
             rx="0.17174947"
             ry="0.22679958"
             transform="matrix(0.9579766,0.28684637,-0.25369198,0.96728506,0,0)" /><ellipse
             style="fill:#ffffff;fill-opacity:1;fill-rule:evenodd;stroke:none;stroke-width:0.117922;stroke-dasharray:none;stroke-opacity:1"
             id="ellipse20564"
             cx="67.176666"
             cy="89.008842"
             rx="0.046093736"
             ry="0.10712101"
             transform="matrix(0.99833765,-0.05763633,0.02790311,0.99961063,0,0)" /></g><g
           id="g20578"
           transform="matrix(2.1640886,0.30353346,-0.35662442,2.5426087,8.5103509,-248.90477)"><ellipse
             style="fill:#000000;fill-opacity:1;fill-rule:evenodd;stroke:none;stroke-width:0.09834;stroke-dasharray:none;stroke-opacity:1"
             id="ellipse20574"
             cx="88.84404"
             cy="61.635918"
             rx="0.17174947"
             ry="0.22679958"
             transform="matrix(0.9579766,0.28684637,-0.25369198,0.96728506,0,0)" /><ellipse
             style="fill:#ffffff;fill-opacity:1;fill-rule:evenodd;stroke:none;stroke-width:0.117922;stroke-dasharray:none;stroke-opacity:1"
             id="ellipse20576"
             cx="67.176666"
             cy="89.008842"
             rx="0.046093736"
             ry="0.10712101"
             transform="matrix(0.99833765,-0.05763633,0.02790311,0.99961063,0,0)" /></g><path
           style="fill:#ffcf00;fill-opacity:1;fill-rule:nonzero;stroke:none;stroke-width:0.284945;stroke-linecap:round;stroke-linejoin:round;stroke-dasharray:none"
           d="m 129.90913,-7.3955822 c -0.0127,-0.020077 -0.096,-0.081079 -0.41526,0.131757 -0.0478,0.031888 -0.10417,0.072361 -0.16709,0.1220347 -0.12237,0.096598 -0.28717,0.2419282 -0.45538,0.4323948 -0.13906,0.1574601 -0.29172,0.3586072 -0.41914,0.5970893 -0.11366,0.2127341 -0.21244,0.4649238 -0.25761,0.749563 -0.0419,0.2643325 -0.038,0.5589763 0.0458,0.8755234 0.0794,0.2997958 0.22938,0.6155605 0.47487,0.9412521 0.23612,0.3132696 0.56037,0.6355155 0.99551,0.9629359 a 0.0817515,0.01417129 38.891947 0 0 0.0573,0.031857 c -0.009,4.327e-4 0.0278,0.017445 0.0803,0.049622 0.0542,0.033253 0.11432,0.0761 0.16088,0.1262165 0.023,0.024793 0.0398,0.048219 0.051,0.069663 0.0113,0.021579 0.0164,0.040064 0.0179,0.056478 0.002,0.016487 1.5e-4,0.036765 -0.008,0.062888 -0.006,0.01925 -0.0168,0.042845 -0.0341,0.070807 -0.008,0.013516 -0.0185,0.028246 -0.0306,0.044165 -0.0198,0.025941 -0.0459,0.056863 -0.0797,0.094325 -0.0331,0.036651 -0.0709,0.076622 -0.11412,0.1216515 -0.0816,0.085052 -0.1863,0.1918839 -0.28868,0.3044249 -0.10215,0.112281 -0.21011,0.2388873 -0.30928,0.3769194 -0.0982,0.1366555 -0.19034,0.28803178 -0.2606,0.45236666 -0.0704,0.16457205 -0.11959,0.34453815 -0.1298,0.53578555 -0.0104,0.19421093 0.0197,0.39376343 0.10007,0.5946331 0.0812,0.20296216 0.21055,0.39953411 0.38884,0.5896476 0.18237,0.19447389 0.41611,0.38242159 0.70286,0.56485689 0.18348,0.1163807 0.2913,0.2356637 0.35516,0.3459735 0.0669,0.1155284 0.095,0.2374505 0.0959,0.3656235 0.001,0.1400729 -0.0305,0.2892203 -0.0838,0.4410758 -0.0585,0.1668255 -0.14133,0.3316145 -0.22784,0.4824137 -0.0892,0.1555717 -0.18662,0.3033355 -0.26855,0.4247786 -0.001,0.00151 -0.0278,0.041092 -0.0288,0.042604 -0.10902,0.161083 -0.19816,0.2909092 -0.27508,0.4127989 -0.041,0.065041 -0.0751,0.1223682 -0.10262,0.1736556 -0.0305,0.056875 -0.0521,0.1044863 -0.066,0.1448445 -0.008,0.022409 -0.0129,0.042358 -0.016,0.060147 -0.003,0.019617 -0.004,0.036798 -0.003,0.051583 8.5e-4,0.00815 0.002,0.015784 0.005,0.022622 0.003,0.00746 0.006,0.014176 0.0111,0.019273 0.003,0.00275 0.005,0.0049 0.008,0.00642 0.003,0.00161 0.006,0.0024 0.009,0.00261 0.003,2.252e-4 0.006,-2.043e-4 0.008,-8.742e-4 0.002,-7.218e-4 0.005,-0.00178 0.006,-0.0028 -0.001,-0.00171 -0.002,-0.00364 -0.003,-0.00563 -2.9e-4,-0.00183 -3e-5,-0.00365 9e-4,-0.00519 0.006,-0.0038 0.007,-0.004 0.009,-0.004 0.004,-7.2e-6 0.007,5.487e-4 0.011,4.834e-4 0.004,-6.08e-5 0.007,-5.692e-4 0.0121,-0.00178 0.008,-0.00216 0.019,-0.00653 0.0327,-0.013498 0.0123,-0.00628 0.0272,-0.01478 0.0448,-0.025694 0.0313,-0.019476 0.0722,-0.047357 0.12167,-0.084609 0.0445,-0.033514 0.097,-0.075267 0.15542,-0.1253065 0.10493,-0.089822 0.23425,-0.2106726 0.36812,-0.3575642 0.0121,-0.01331 0.0243,-0.026847 0.0365,-0.040605 0.10399,-0.1171717 0.22415,-0.2647116 0.3385,-0.4321472 0.10909,-0.1597344 0.22093,-0.3493007 0.30533,-0.5553158 0.0762,-0.1860959 0.13538,-0.3983706 0.14179,-0.6220716 0.006,-0.2111247 -0.035,-0.434522 -0.15447,-0.6507655 -0.11339,-0.2052212 -0.29035,-0.3912131 -0.53953,-0.5514813 -0.25611,-0.16467 -0.44955,-0.32390748 -0.59167,-0.47569411 -0.13818,-0.14758702 -0.22488,-0.28492357 -0.27591,-0.41062751 -0.0498,-0.12277337 -0.0678,-0.23949698 -0.063,-0.35235144 0.005,-0.11330395 0.0327,-0.22801722 0.0807,-0.34489739 0.0482,-0.11748774 0.11553,-0.23405382 0.1954,-0.34899877 0.0805,-0.11589829 0.17158,-0.22688148 0.26409,-0.33211718 0.0942,-0.1071827 0.18849,-0.2067545 0.27397,-0.2992688 0.0434,-0.047019 0.0851,-0.092755 0.12315,-0.136625 0.0385,-0.044414 0.075,-0.088938 0.10679,-0.1327237 0.0216,-0.029808 0.0411,-0.059639 0.0586,-0.089516 0.036,-0.061652 0.0647,-0.1260418 0.0841,-0.1929954 0.0275,-0.095169 0.0348,-0.1910847 0.0212,-0.2851512 -0.0128,-0.089545 -0.0435,-0.170195 -0.084,-0.2410309 -0.039,-0.068284 -0.0869,-0.1268316 -0.13616,-0.1762162 -0.0957,-0.095865 -0.20364,-0.1638325 -0.28397,-0.2062609 -0.0565,-0.029876 -0.10202,-0.048677 -0.12787,-0.057406 -0.38983,-0.2929764 -0.67214,-0.572773 -0.87433,-0.8340899 -0.21567,-0.278729 -0.34169,-0.5383202 -0.40957,-0.7742274 -0.0716,-0.2488407 -0.081,-0.4800507 -0.0545,-0.6905614 0.0288,-0.2283546 0.1008,-0.4386515 0.19006,-0.6253839 0.10001,-0.2092274 0.22405,-0.393649 0.34025,-0.544977 0.13854,-0.1804161 0.28026,-0.3319194 0.37951,-0.4350484 0.0483,-0.050246 0.10087,-0.1035866 0.13509,-0.1386976 0.25153,-0.258112 0.24661,-0.3314792 0.23393,-0.3515564 z"
           id="path34740"
           inkscape:path-effect="#path-effect34742"
           inkscape:original-d="m 129.90913,-7.3955822 c 0,0 -3.3769,2.1325406 -0.0519,4.6165992 0,0 0.77928,0.304649 0.36371,0.8670771 -0.41562,0.5624283 -2.25483,1.825495 -0.052,3.2339632 1.6973,1.085238 -0.93977,3.1897354 -0.72733,3.2339628"
           sodipodi:nodetypes="cccsc" /><path
           style="fill:#000000;fill-opacity:1;fill-rule:nonzero;stroke:none;stroke-width:0.1;stroke-linecap:round;stroke-linejoin:round;stroke-dasharray:none"
           d="m 125.59604,-12.946942 c 0.085,0.04274 0.20152,0.09087 0.34354,0.130808 0.023,0.0065 0.0462,0.01283 0.0699,0.01888 0.1238,0.03166 0.25015,0.05167 0.37518,0.03325 0.002,-3.02e-4 0.004,-6.14e-4 0.006,-9.36e-4 0.12375,-0.01949 0.23555,-0.07379 0.33626,-0.138427 0.0252,-0.01619 0.0489,-0.0324 0.0714,-0.04811 0.0996,-0.06963 0.17525,-0.137251 0.22279,-0.185275 a 0.06611482,0.06611482 90 0 0 -0.094,-0.09302 c -0.0417,0.04209 -0.11207,0.111968 -0.20191,0.168111 -0.0207,0.01294 -0.0431,0.02516 -0.0668,0.03648 -0.0966,0.04617 -0.19417,0.06851 -0.29598,0.08547 -5e-5,8e-6 -0.005,8.3e-4 -0.005,8.38e-4 -0.10199,0.01683 -0.20793,0.02971 -0.32371,0.01536 -0.0218,-0.0027 -0.0433,-0.0063 -0.0646,-0.01094 -0.1272,-0.02766 -0.243,-0.08354 -0.31837,-0.121457 a 0.06098686,0.06098686 90 0 0 -0.0548,0.108964 z"
           id="path34884"
           sodipodi:nodetypes="cc"
           inkscape:path-effect="#path-effect34886"
           inkscape:original-d="m 125.62345,-13.001424 c 0.56153,0.282477 0.99682,0.175741 1.35076,-0.181833" /><path
           style="fill:#000000;fill-opacity:1;fill-rule:nonzero;stroke:none;stroke-width:0.1;stroke-linecap:round;stroke-linejoin:round;stroke-dasharray:none"
           d="m 129.34831,-12.853859 c -0.0754,0.03791 -0.19117,0.09379 -0.31837,0.121457 -0.0212,0.0046 -0.0428,0.0082 -0.0646,0.01094 -0.11578,0.01435 -0.22172,0.0015 -0.32371,-0.01536 5e-5,9e-6 -0.005,-8.47e-4 -0.005,-8.38e-4 -0.10181,-0.01696 -0.19937,-0.03931 -0.29598,-0.08547 -0.0237,-0.01131 -0.0461,-0.02354 -0.0668,-0.03648 -0.0898,-0.05614 -0.16025,-0.126022 -0.20191,-0.168111 a 0.06611482,0.06611482 90 0 0 -0.094,0.09302 c 0.0475,0.04802 0.12318,0.115649 0.22279,0.185275 0.0225,0.01571 0.0461,0.03192 0.0713,0.04811 0.10071,0.06464 0.21251,0.11894 0.33626,0.138427 0.002,3.22e-4 0.004,6.34e-4 0.006,9.36e-4 0.12503,0.01842 0.25138,-0.0016 0.37518,-0.03325 0.0237,-0.0061 0.0469,-0.01242 0.0699,-0.01888 0.14202,-0.03994 0.25858,-0.08807 0.34354,-0.130808 a 0.06098686,0.06098686 90 0 0 -0.0548,-0.108964 z"
           id="path34888"
           sodipodi:nodetypes="cc"
           inkscape:path-effect="#path-effect34892"
           inkscape:original-d="m 129.37572,-12.799377 c -0.56153,0.282477 -0.99682,0.175741 -1.35076,-0.181833" /></g><g
         id="g48334"
         transform="translate(5.4033966,4.7260938)"><g
           id="g48326"><path
             style="fill:#000000;fill-opacity:1;fill-rule:nonzero;stroke:none;stroke-width:0.2;stroke-linecap:round;stroke-linejoin:round;stroke-dasharray:none;paint-order:normal"
             d="m 115.81271,8.4863677 c 0.001,0.098703 0.008,0.2868943 0.009,0.5922204 0.002,1.0416269 -0.0857,4.7426439 -0.0696,6.8929289 0.0142,1.891564 0.10615,3.933454 0.13397,5.332597 0.018,0.907856 0.0274,1.871359 0.0329,2.245631 l 0.004,0.246891 0.49378,-0.0072 -0.004,-0.246891 c -0.005,-0.374272 -0.0243,-1.337636 -0.0329,-2.245631 -0.0131,-1.399358 0.019,-3.443064 -0.0221,-5.334233 -0.0468,-2.149837 -0.24311,-5.846693 -0.27123,-6.8879424 -0.008,-0.3052157 -0.007,-0.4935171 -0.009,-0.5922205 l -0.002,-0.1324126 -0.26482,0.00388 z"
             id="path48284"
             class="UnoptimicedTransforms"
             inkscape:path-effect="#path-effect48292"
             inkscape:original-d="m 115.94512,8.4844299 0.22042,15.0617021"
             transform="translate(1.6475378,0.0278286)" /><path
             style="fill:#e8e8e8;fill-opacity:1;fill-rule:evenodd;stroke:#000000;stroke-width:0.3;stroke-linecap:round;stroke-linejoin:round;stroke-dasharray:none;paint-order:normal"
             d="m 118.01557,25.823456 c 0,0 2.75348,2.675547 -1.6365,4.883521 -4.38997,2.207974 -3.66264,0.298726 -3.66264,0.298726 0,0 1.75339,-3.688618 4.32503,-5.403043 -0.1325,-0.176668 -1.90924,-1.740404 1.07802,-1.844309 0,0 2.58558,0.151076 -0.10391,2.065105 z"
             id="path48294"
             sodipodi:nodetypes="cscccc" /></g><g
           id="g48322"><path
             style="fill:#000000;fill-opacity:1;fill-rule:nonzero;stroke:none;stroke-width:0.2;stroke-linecap:round;stroke-linejoin:round;stroke-dasharray:none;paint-order:normal"
             d="m 125.31973,8.0420806 c 0.0396,0.3621274 0.13063,1.1471549 0.20534,1.9948444 0.12646,1.434927 0.20802,3.171105 0.27377,5.035809 0.0654,1.8538 0.057,4.634453 -0.0173,5.714969 -0.0297,0.431588 -0.0637,0.761744 -0.0781,0.910471 l -0.0192,0.196853 0.3937,0.03836 0.0192,-0.196854 c 0.0145,-0.148553 0.0442,-0.48586 0.0789,-0.919445 0.12179,-1.519017 0.23698,-3.455099 0.14726,-5.763799 -0.0721,-1.855454 -0.27848,-3.640571 -0.42378,-5.05214 -0.0843,-0.8186972 -0.16943,-1.6672214 -0.20586,-2.0000044 l -0.0205,-0.186956 -0.37391,0.040933 z"
             id="path48305"
             sodipodi:nodetypes="cc"
             inkscape:path-effect="#path-effect48307"
             inkscape:original-d="m 125.50669,8.0216141 c 0.50156,4.5816209 0.82984,9.2183249 0.39356,13.6957409" /><path
             style="fill:#e8e8e8;fill-opacity:1;fill-rule:evenodd;stroke:#000000;stroke-width:0.3;stroke-linecap:round;stroke-linejoin:round;stroke-dasharray:none;paint-order:normal"
             d="m 125.9404,27.282561 c 0,0 -3.52664,-0.826555 -0.5694,-3.434802 0,0 -1.45107,-0.936765 0.4592,-2.075577 0,0 2.13067,-0.0551 0.77145,1.947 0,0 4.8675,4.169521 3.93073,4.849135 -0.93676,0.679614 -1.13881,0.569405 -4.59198,-1.285756 z"
             id="path48309"
             sodipodi:nodetypes="ccccsc" /></g></g><g
         id="g134959"><path
           style="fill:#000000;fill-opacity:1;fill-rule:nonzero;stroke:none;stroke-width:0.305517;stroke-linecap:round;stroke-linejoin:round;stroke-dasharray:none;paint-order:normal"
           d="m 121.53225,-4.638887 c -0.002,3.843e-4 -0.40428,0.1011481 -1.41159,0.42709 -0.18997,0.061467 -0.4172,0.1357523 -0.66552,0.2216644 -0.52777,0.1825984 -1.19788,0.4337977 -1.87429,0.7586571 -0.62857,0.3018807 -1.25788,0.6650425 -1.7873,1.0946144 -0.2686,0.2179404 -0.50844,0.4504901 -0.70989,0.6984516 -0.21292,0.262093 -0.37916,0.536789 -0.4923,0.82336134 -0.10055,0.25468483 -0.15584,0.51043542 -0.16899,0.76377816 -0.003,0.06056 -0.004,0.12192922 -0.002,0.18405288 0.009,0.3280139 0.0883,0.66568031 0.24462,1.00853062 0.1567,0.34369 0.38551,0.6806933 0.6803,1.0121269 0.31791,0.3574254 0.70402,0.6988035 1.13635,1.0249212 0.82505,0.6223582 1.7528,1.1391884 2.44211,1.5080801 0.61443,0.3288155 1.16637,0.6022388 1.39952,0.7137904 a 0.16285939,0.16285939 90 0 0 0.14058,-0.2938206 c -0.23596,-0.1128962 -0.77812,-0.3678858 -1.38393,-0.7058085 -0.67536,-0.3767233 -1.55869,-0.9322948 -2.30959,-1.580394 -0.3938,-0.3398889 -0.72682,-0.6837207 -0.9879,-1.0276957 -0.24179,-0.3185509 -0.40873,-0.6198508 -0.51344,-0.903091 -0.10352,-0.28005397 -0.14339,-0.53459404 -0.14237,-0.76693843 2e-4,-0.0444865 0.002,-0.0882644 0.005,-0.13136265 0.0127,-0.17914722 0.0503,-0.363289 0.1199,-0.55418355 0.0787,-0.2157896 0.1974,-0.43764962 0.36292,-0.66558277 0.15697,-0.216149 0.35116,-0.431007 0.58078,-0.6437117 0.4552,-0.4216506 1.01653,-0.8042021 1.60532,-1.14 0.62949,-0.359016 1.26654,-0.6509243 1.77489,-0.8607134 0.23985,-0.098984 0.458,-0.1825557 0.64421,-0.2496147 0.98227,-0.3537337 1.38776,-0.4200136 1.38621,-0.4196293 a 0.15275829,0.15275829 90 0 0 -0.0734,-0.2965728 z"
           id="path38864"
           inkscape:path-effect="#path-effect38866"
           inkscape:original-d="m 121.56894,-4.4906006 c 0,0 -14.47392,3.5813363 -1.17555,9.9439224" /><g
           id="g134949"><path
             style="fill:#e8e8e8;fill-opacity:1;fill-rule:evenodd;stroke:#000000;stroke-width:0.3;stroke-linecap:round;stroke-linejoin:round;stroke-dasharray:none"
             d="m 120.09833,6.9153155 c -0.68015,-0.1517254 -0.45343,-2.1241406 1.36029,-1.9420723 0,0 0.68015,0.1213795 0.38866,1.2137979 0,0 2.33193,0.9103449 1.81372,2.9737953 0,0 -0.19433,0.8799996 -1.84611,1.3655136 0,0 -3.40074,2.427584 -4.08088,2.245521 -0.68015,-0.182071 -0.32388,-0.81931 -0.32388,-0.81931 0,0 -1.42507,0.637239 -2.72059,-0.485521 0,0 -0.12955,-0.06066 0,-0.455169 0,0 -0.48582,-0.24276 0.97164,-1.06207 0,0 -0.0972,-0.94069 1.68417,-0.8799998 0,0 0.51821,-1.3655211 2.75298,-2.1544857 z"
             id="path134864" /><path
             style="fill:#000000;fill-opacity:1;fill-rule:nonzero;stroke:none;stroke-width:0.231252;stroke-linecap:round;stroke-linejoin:round;stroke-dasharray:none"
             d="m 117.5271,11.972155 c -5.2e-4,0.0012 0.002,-0.01455 0.0726,-0.149862 0.0345,-0.06595 0.17108,-0.32108 0.38479,-0.587589 0.13972,-0.174249 0.32342,-0.366982 0.54332,-0.516211 0.10473,-0.07107 0.21645,-0.131583 0.33486,-0.176607 0.11882,-0.04518 0.24291,-0.07423 0.37244,-0.08363 a 0.14445994,0.14420595 75.53814 0 0 0.12039,-0.204487 c 0.006,0.01273 0.009,0.02371 0.01,0.03053 0.001,0.0071 0.002,0.01285 0.002,0.01637 4e-4,0.0076 1e-5,0.01016 3e-5,0.0107 5e-5,0.0011 0.001,-0.0061 0.004,-0.01641 0.003,-0.01072 0.007,-0.02447 0.0124,-0.04145 0.006,-0.01708 0.0123,-0.03662 0.0203,-0.05843 0.0342,-0.09323 0.0866,-0.216469 0.15344,-0.3539438 0.17938,-0.3691141 0.38922,-0.6959962 0.59005,-0.9533262 0.006,-0.00829 0.0129,-0.016482 0.0193,-0.024586 0.15541,-0.1960118 0.30198,-0.3434799 0.43051,-0.4551068 0.15554,-0.1350903 0.32278,-0.2507242 0.4943,-0.3342472 0.0199,-0.0097 0.0404,-0.019184 0.0612,-0.028367 0.14786,-0.064984 0.31436,-0.1162033 0.5042,-0.1287375 0.28026,-0.018505 0.52045,0.054942 0.67595,0.1213111 -0.13971,-0.084968 -0.37221,-0.2101951 -0.67221,-0.2457185 -0.20718,-0.024533 -0.4043,-0.00129 -0.58138,0.052738 -0.0249,0.0076 -0.0492,0.015687 -0.073,0.024186 -0.20801,0.074363 -0.40031,0.1898976 -0.57981,0.334025 -0.14705,0.1180662 -0.30906,0.2743003 -0.48051,0.4805931 -0.007,0.00851 -0.0142,0.017116 -0.0213,0.025814 -0.21908,0.2677292 -0.44511,0.6163464 -0.63251,1.0026931 -0.0701,0.1445722 -0.12648,0.2778985 -0.16397,0.3831442 -0.009,0.02493 -0.0167,0.04834 -0.0234,0.06988 -0.007,0.02114 -0.0121,0.04107 -0.0165,0.05927 -0.004,0.01732 -0.008,0.036 -0.01,0.0541 -9.3e-4,0.0089 -0.002,0.02073 -0.001,0.03381 3.2e-4,0.0067 0.001,0.01518 0.003,0.02475 0.002,0.0093 0.005,0.02231 0.0117,0.03674 l 0.12039,-0.204487 c -0.15963,0.01317 -0.31081,0.05072 -0.45295,0.106854 -0.14131,0.05581 -0.2715,0.129118 -0.39032,0.212306 -0.24905,0.17435 -0.44792,0.391922 -0.5943,0.580948 -0.22411,0.289379 -0.36529,0.565859 -0.40107,0.635372 -0.0749,0.145574 -0.0803,0.165957 -0.0808,0.167182 a 0.12718838,0.12718838 90 0 0 0.23394,0.09988 z"
             id="path134866"
             sodipodi:nodetypes="ccc"
             inkscape:path-effect="#path-effect134880"
             inkscape:original-d="m 117.41013,11.922216 c 0,0 0.64775,-1.517246 1.81372,-1.608282 -0.0498,-0.108972 1.23387,-3.2400847 3.10924,-2.2758655" /><path
             style="fill:#000000;fill-opacity:1;fill-rule:nonzero;stroke:none;stroke-width:0.231;stroke-linecap:round;stroke-linejoin:round;stroke-dasharray:none"
             d="m 114.62476,11.436702 c 0.007,-0.01477 0.0219,-0.02945 0.0476,-0.04903 0.0171,-0.013 0.0379,-0.02784 0.0626,-0.04724 0.0253,-0.01981 0.0543,-0.04411 0.0876,-0.07518 0.019,-0.01778 0.0411,-0.03885 0.0669,-0.06306 0.0524,-0.0491 0.1215,-0.112107 0.2092,-0.181966 0.0755,-0.06013 0.16415,-0.124852 0.26446,-0.187803 0.18987,-0.119148 0.40767,-0.223142 0.63338,-0.277158 0.11518,-0.02756 0.227,-0.0408 0.33421,-0.03902 0.119,0.002 0.22751,0.02233 0.32595,0.05755 0.24174,0.08684 0.43456,0.09609 0.58394,0.07067 0.16096,-0.02738 0.28048,-0.09641 0.36648,-0.171818 0.007,-0.0064 0.0143,-0.01283 0.0212,-0.01933 0.0704,-0.06675 0.11857,-0.141512 0.14693,-0.205479 0.0398,-0.0898 0.027,-0.114694 0.0236,-0.115964 h 0 c -0.006,-0.0021 -0.0242,0.01838 -0.0803,0.07938 -0.0445,0.04839 -0.0986,0.09948 -0.16829,0.143942 -0.007,0.0042 -0.0134,0.0084 -0.0203,0.01245 -0.0816,0.04784 -0.18356,0.08288 -0.31053,0.08801 -0.11669,0.0047 -0.27384,-0.01497 -0.48073,-0.0981 -0.12066,-0.04783 -0.25323,-0.07841 -0.398,-0.08709 -0.1301,-0.0078 -0.26398,0.0025 -0.39955,0.02934 -0.26409,0.05229 -0.51519,0.163615 -0.7264,0.293919 -0.11223,0.06924 -0.21071,0.142273 -0.29295,0.212608 -0.0958,0.08197 -0.16895,0.159572 -0.22084,0.226821 -0.0255,0.03302 -0.0459,0.06357 -0.0618,0.09134 -0.0277,0.04849 -0.0443,0.09489 -0.0521,0.136422 -0.008,0.04096 -0.006,0.0759 -2.2e-4,0.103738 0.009,0.0416 0.0278,0.06162 0.038,0.07206 z"
             id="path134868"
             inkscape:path-effect="#path-effect134884"
             inkscape:original-d="m 114.62476,11.436702 c -0.0494,-0.27741 1.12935,-1.328617 2.07283,-0.971042 0.85399,0.323656 1.10119,-0.333796 1.10119,-0.333796"
             sodipodi:nodetypes="csc" /><path
             style="fill:#000000;fill-opacity:1;fill-rule:nonzero;stroke:none;stroke-width:0.231252;stroke-linecap:round;stroke-linejoin:round;stroke-dasharray:none"
             d="m 115.64393,10.108045 c 0.0913,-0.06189 0.20841,-0.1324738 0.35036,-0.1965345 0.0294,-0.013273 0.0578,-0.024977 0.0852,-0.035604 0.0677,-0.026265 0.14842,-0.053034 0.22727,-0.078393 0.0564,-0.018146 0.11566,-0.035761 0.18189,-0.053456 0.13058,-0.034889 0.2397,-0.057452 0.35645,-0.083538 0.17757,-0.039675 0.31096,-0.079535 0.40309,-0.1052042 -0.0665,-0.00606 -0.26233,-0.034563 -0.41686,-0.038552 -0.11471,-0.00296 -0.24756,0.00235 -0.38387,0.021306 -0.0724,0.010068 -0.14017,0.023175 -0.20267,0.038392 -0.0924,0.022501 -0.17369,0.051701 -0.25162,0.08375 -0.0299,0.012307 -0.0613,0.025868 -0.0937,0.040404 -0.15662,0.070253 -0.28607,0.1487925 -0.38523,0.2160081 a 0.1156258,0.1156258 90 0 0 0.12974,0.1914221 z"
             id="path134870"
             inkscape:path-effect="#path-effect134888"
             inkscape:original-d="m 115.57906,10.012334 c 0.62596,-0.4242863 1.18829,-0.4134302 1.66912,-0.457019"
             sodipodi:nodetypes="cc" /><path
             style="fill:none;fill-opacity:1;fill-rule:evenodd;stroke:#000000;stroke-width:0.190009;stroke-linecap:round;stroke-linejoin:round;stroke-dasharray:none"
             d="m 117.33136,9.4633098 c 0.0737,-0.043425 0.0863,-0.013953 -0.0277,-0.057377"
             id="path134872"
             sodipodi:nodetypes="cc" /><path
             style="fill:none;fill-opacity:1;fill-rule:evenodd;stroke:#000000;stroke-width:0.181176;stroke-linecap:round;stroke-linejoin:round;stroke-dasharray:none"
             d="m 117.7779,9.9731101 c 0.0571,0.056482 0.03,0.072972 0.0522,-0.034919"
             id="path134874"
             sodipodi:nodetypes="cc" /></g></g></g></g></svg>
