<?xml version="1.0" encoding="UTF-8" standalone="no"?>
<!-- Created with Inkscape (http://www.inkscape.org/) -->

<svg
   width="40.780296mm"
   height="50.551006mm"
   viewBox="0 0 40.780296 50.551008"
   version="1.1"
   id="svg5"
   xml:space="preserve"
   inkscape:export-filename="beefy miracle v4.svg"
   inkscape:export-xdpi="96"
   inkscape:export-ydpi="96"
   inkscape:version="1.2.2 (b0a8486541, 2022-12-01)"
   sodipodi:docname="beefy_miracle_v4.svg"
   xmlns:inkscape="http://www.inkscape.org/namespaces/inkscape"
   xmlns:sodipodi="http://sodipodi.sourceforge.net/DTD/sodipodi-0.dtd"
   xmlns="http://www.w3.org/2000/svg"
   xmlns:svg="http://www.w3.org/2000/svg"><sodipodi:namedview
     id="namedview7"
     pagecolor="#ffffff"
     bordercolor="#999999"
     borderopacity="1"
     inkscape:showpageshadow="0"
     inkscape:pageopacity="0"
     inkscape:pagecheckerboard="0"
     inkscape:deskcolor="#d1d1d1"
     inkscape:document-units="mm"
     showgrid="false"
     showguides="true"
     inkscape:zoom="1.5587434"
     inkscape:cx="71.211208"
     inkscape:cy="221.33213"
     inkscape:window-width="1920"
     inkscape:window-height="1011"
     inkscape:window-x="0"
     inkscape:window-y="0"
     inkscape:window-maximized="1"
     inkscape:current-layer="layer1"><inkscape:grid
       type="xygrid"
       id="grid105985"
       originx="0"
       originy="0" /></sodipodi:namedview><defs
     id="defs2"><inkscape:path-effect
       effect="powerstroke"
       id="path-effect72086"
       is_visible="true"
       lpeversion="1"
       offset_points="0.43443326,0.090568407 | 1.4884203,0.13773702 | 2.7211434,0.078979155"
       not_jump="false"
       sort_points="true"
       interpolator_type="CentripetalCatmullRom"
       interpolator_beta="0.2"
       start_linecap_type="zerowidth"
       linejoin_type="round"
       miter_limit="4"
       scale_width="1"
       end_linecap_type="zerowidth" /><inkscape:path-effect
       effect="powerstroke"
       id="path-effect72080"
       is_visible="true"
       lpeversion="1"
       offset_points="0.43443326,0.090568407 | 1.4884203,0.13773702 | 2.7211434,0.078979155"
       not_jump="false"
       sort_points="true"
       interpolator_type="CentripetalCatmullRom"
       interpolator_beta="0.2"
       start_linecap_type="zerowidth"
       linejoin_type="round"
       miter_limit="4"
       scale_width="1"
       end_linecap_type="zerowidth" /><inkscape:path-effect
       effect="powerstroke"
       id="path-effect72076"
       is_visible="true"
       lpeversion="1"
       offset_points="0.52558566,0.11125854 | 1.5388373,0.11356282 | 2.6726288,0.11317311"
       not_jump="false"
       sort_points="true"
       interpolator_type="CentripetalCatmullRom"
       interpolator_beta="0.2"
       start_linecap_type="zerowidth"
       linejoin_type="round"
       miter_limit="4"
       scale_width="1"
       end_linecap_type="zerowidth" /><inkscape:path-effect
       effect="powerstroke"
       id="path-effect72031"
       is_visible="true"
       lpeversion="1"
       offset_points="0.18743526,0.12338078 | 0.4810894,0.15285259 | 0.8,0.1"
       not_jump="false"
       sort_points="true"
       interpolator_type="CentripetalCatmullRom"
       interpolator_beta="0.2"
       start_linecap_type="zerowidth"
       linejoin_type="round"
       miter_limit="4"
       scale_width="1"
       end_linecap_type="zerowidth" /><inkscape:path-effect
       effect="powerstroke"
       id="path-effect72025"
       is_visible="true"
       lpeversion="1"
       offset_points="0.19163429,0.16008958 | 0.50699169,0.18914922 | 0.80792801,0.15600714"
       not_jump="false"
       sort_points="true"
       interpolator_type="CentripetalCatmullRom"
       interpolator_beta="0.2"
       start_linecap_type="zerowidth"
       linejoin_type="round"
       miter_limit="4"
       scale_width="1"
       end_linecap_type="zerowidth" /><inkscape:path-effect
       effect="powerstroke"
       id="path-effect69857"
       is_visible="true"
       lpeversion="1"
       offset_points="0.23203338,0.083204448 | 0.55290059,0.15640137 | 0.87647863,0.17018488"
       not_jump="false"
       sort_points="true"
       interpolator_type="CentripetalCatmullRom"
       interpolator_beta="0.2"
       start_linecap_type="zerowidth"
       linejoin_type="round"
       miter_limit="4"
       scale_width="1"
       end_linecap_type="round" /><inkscape:path-effect
       effect="powerstroke"
       id="path-effect58965"
       is_visible="true"
       lpeversion="1"
       offset_points="0.2,0.1848986 | 1,0.1848986 | 1.8,0.1848986"
       not_jump="false"
       sort_points="true"
       interpolator_type="CentripetalCatmullRom"
       interpolator_beta="0.2"
       start_linecap_type="zerowidth"
       linejoin_type="round"
       miter_limit="4"
       scale_width="0.8"
       end_linecap_type="zerowidth" /><inkscape:path-effect
       effect="powerstroke"
       id="path-effect58963"
       is_visible="true"
       lpeversion="1"
       offset_points="0.2,0.1848986 | 1,0.1848986 | 1.8,0.1848986"
       not_jump="false"
       sort_points="true"
       interpolator_type="CentripetalCatmullRom"
       interpolator_beta="0.2"
       start_linecap_type="zerowidth"
       linejoin_type="round"
       miter_limit="4"
       scale_width="0.8"
       end_linecap_type="zerowidth" /><inkscape:path-effect
       effect="powerstroke"
       id="path-effect58961"
       is_visible="true"
       lpeversion="1"
       offset_points="0.2,0.1848986 | 1,0.1848986 | 1.8,0.1848986"
       not_jump="false"
       sort_points="true"
       interpolator_type="CentripetalCatmullRom"
       interpolator_beta="0.2"
       start_linecap_type="zerowidth"
       linejoin_type="round"
       miter_limit="4"
       scale_width="0.8"
       end_linecap_type="zerowidth" /><inkscape:path-effect
       effect="powerstroke"
       id="path-effect58926"
       is_visible="true"
       lpeversion="1"
       offset_points="0.30242774,0.2952916 | 2.0624822,0.29695972 | 3.7516271,0.38241768"
       not_jump="false"
       sort_points="true"
       interpolator_type="CentripetalCatmullRom"
       interpolator_beta="0.2"
       start_linecap_type="zerowidth"
       linejoin_type="round"
       miter_limit="4"
       scale_width="1"
       end_linecap_type="round" /><linearGradient
       id="linearGradient38280"
       inkscape:swatch="solid"><stop
         style="stop-color:#000000;stop-opacity:1;"
         offset="0"
         id="stop38278" /></linearGradient></defs><g
     inkscape:label="Layer 1"
     inkscape:groupmode="layer"
     id="layer1"
     transform="translate(-42.987393,-100.38697)"><g
       id="g8346"><g
         id="g69863"
         transform="matrix(1.2769902,0,0,1.2769902,-14.805553,0.1740154)"><path
           style="fill:#000000;fill-opacity:1;fill-rule:nonzero;stroke:none;stroke-width:0.2;stroke-linecap:round;stroke-linejoin:round;stroke-dasharray:none"
           d="m 54.541423,97.438324 c -0.03615,0.18616 -0.130737,0.718069 -0.20017,1.12922 -0.06967,0.412541 -0.154308,0.863367 -0.28795,1.331703 -0.0256,0.08972 -0.05262,0.178813 -0.08127,0.267663 -0.105827,0.32824 -0.236417,0.66743 -0.418314,1.02503 -0.131519,0.25857 -0.270372,0.48806 -0.404473,0.68677 -0.207649,0.3077 -0.40533,0.55127 -0.529505,0.69739 a 0.17018488,0.17018488 90 0 0 0.259362,0.22042 c 0.127616,-0.15017 0.33826,-0.40596 0.552885,-0.72831 0.139338,-0.20928 0.285573,-0.4506 0.422797,-0.72424 0.188548,-0.37597 0.324136,-0.74177 0.417296,-1.08865 0.02538,-0.0945 0.04821,-0.18926 0.06873,-0.284303 0.106434,-0.49294 0.145022,-0.968994 0.165872,-1.385464 0.02101,-0.419625 0.02613,-0.957788 0.03474,-1.147229 z"
           id="path69855"
           sodipodi:nodetypes="cc"
           inkscape:path-effect="#path-effect69857"
           inkscape:original-d="m 54.541423,97.438324 c -0.192859,1.61874 -0.128115,3.290086 -1.791999,5.247986" /><path
           style="fill:#e8e8e8;fill-opacity:1;fill-rule:evenodd;stroke:#000000;stroke-width:0.234927;stroke-linecap:round;stroke-linejoin:round;stroke-dasharray:none"
           d="m 51.160594,104.17558 c 0,0 0.383998,-2.368 1.727999,-1.34399 1.343999,1.02399 -0.384001,2.01599 -0.512001,2.01599 -0.128,0 1.44,0.736 0.448001,2.336 -0.992,1.6 -1.44,-1.088 -1.44,-1.088 l 0.159999,0.704 c 0,0 0,0.992 -3.007998,1.28 -3.007998,0.288 0.799999,-2.176 0.799999,-2.176 l -1.407998,0.896 c 0,0 -0.448001,-1.408 3.231999,-2.624 z"
           id="path69859" /></g><g
         id="g72021"
         transform="matrix(1.2769902,0,0,1.2769902,-14.410493,-4.6558572)"><path
           style="fill:none;fill-opacity:1;fill-rule:evenodd;stroke:#000000;stroke-width:0.2;stroke-linecap:round;stroke-linejoin:round;stroke-dasharray:none"
           d="m 67.832377,110.27084 c 1.538663,2.53427 1.538663,2.44376 1.538663,2.44376"
           id="path72015" /><g
           id="g65560"
           transform="translate(1.2671347,-29.506135)"><path
             style="fill:#e8e8e8;fill-opacity:1;fill-rule:evenodd;stroke:#000000;stroke-width:0.234927;stroke-linecap:round;stroke-linejoin:round;stroke-dasharray:none"
             d="m 71.051676,148.53453 c 0,0 0.886169,2.06772 -0.632976,2.6163 -1.519142,0.54858 -1.181555,-1.77233 -1.181555,-1.77233 0,0 -2.911692,-4.09325 -1.434746,-5.52799 0,0 -2.447509,-0.84397 -0.168793,-2.48971 2.278713,-1.64574 2.531904,1.60354 2.320912,2.27871 0,0 3.20708,1.64574 4.852818,3.12269 0,0 0.84397,2.27871 -2.700698,-0.42199 0.03744,-0.0588 -0.152842,0.16736 1.27304,0.97169 1.555315,0.87734 1.810195,0.2489 2.104351,1.28976 0.294156,1.04086 -3.796165,1.22338 -4.432353,-0.0671 z"
             id="path65463"
             sodipodi:nodetypes="csccscccsssc" /><path
             style="fill:#e8e8e8;fill-opacity:1;fill-rule:evenodd;stroke:#000000;stroke-width:0.234927;stroke-linecap:round;stroke-linejoin:round;stroke-dasharray:none"
             d="m 71.705377,144.50641 c 0.837216,-0.24891 1.470781,0.0905 1.493409,0.92772"
             id="path65556" /></g></g><g
         id="g3364"><path
           style="fill:#d09151;fill-opacity:1;fill-rule:evenodd;stroke:#000000;stroke-width:0.411;stroke-linecap:round;stroke-linejoin:round;stroke-dasharray:none"
           d="m 68.535856,137.31338 c 0,0 -14.657254,5.92756 -12.932873,-9.80744 l 0.969968,0.96998 c 0,0 -9.376333,-9.16079 -1.401063,-13.79507 7.975273,-4.63428 13.36397,9.37634 13.471744,10.66962 0.107778,1.29328 2.909896,11.20849 -0.107776,11.96291 z"
           id="path56785"
           sodipodi:nodetypes="cccssc" /><path
           style="fill:#aa430f;fill-opacity:1;fill-rule:evenodd;stroke:#000000;stroke-width:0.411;stroke-linecap:round;stroke-linejoin:round;stroke-dasharray:none"
           d="m 68.252253,129.01478 c 0,0 0.323322,5.71203 -2.263255,6.25089 -2.586573,0.53887 -5.712019,-1.72438 -5.496471,-6.89753 0,0 -8.945234,-17.7827 -3.017668,-19.83041 5.927566,-2.0477 5.819792,4.31096 6.57421,6.57421 0.754416,2.26325 4.310958,12.93288 4.203184,13.90284 z"
           id="path56787" /><path
           style="fill:#d09151;fill-opacity:1;fill-rule:evenodd;stroke:#000000;stroke-width:0.411;stroke-linecap:round;stroke-linejoin:round;stroke-dasharray:none"
           d="m 74.880349,135.69676 c 0,0 -3.017671,3.55654 -7.544177,0.37721 -4.526504,-3.17934 -2.155478,-9.69966 -2.155478,-9.69966 l 0.646644,0.96998 c 0,0 -7.005305,-10.83129 -2.155478,-14.0645 0,0 4.903722,-5.33481 9.537994,6.68197 4.634277,12.0168 4.309072,11.32742 1.670495,15.735 z"
           id="path54513"
           sodipodi:nodetypes="cscccsc" /><path
           style="fill:#ffcf00;fill-opacity:1;fill-rule:nonzero;stroke:none;stroke-width:0.510796;stroke-linecap:round;stroke-linejoin:round;stroke-dasharray:none"
           d="m 59.845884,117.80629 c -4.56e-4,-4.8e-4 -8.68e-4,-8.9e-4 -0.0014,-0.001 -0.0071,-0.006 -0.0098,-0.007 -0.01282,-0.009 -0.0055,-0.003 -0.01225,-0.005 -0.02053,-0.007 -0.01408,-0.003 -0.03254,-0.004 -0.05629,-0.001 -0.03844,0.005 -0.09109,0.0191 -0.159743,0.0517 -0.106301,0.0504 -0.258123,0.14789 -0.433518,0.31174 -0.06358,0.0594 -0.130554,0.12787 -0.198282,0.2054 -0.0826,0.0945 -0.174092,0.21071 -0.264586,0.34565 -0.12947,0.19305 -0.269221,0.44306 -0.366312,0.72991 -0.08454,0.24978 -0.142943,0.54602 -0.118068,0.86432 0.01163,0.1488 0.04152,0.3028 0.09579,0.45849 0.05229,0.15 0.126603,0.29982 0.227059,0.44665 0.192187,0.28089 0.475143,0.54387 0.870553,0.77826 0.376783,0.22334 0.859596,0.42315 1.474587,0.59009 a 0.10302677,9.5490241e-4 7.1696277 0 0 0.09516,0.0129 c -0.03244,-0.004 -0.0085,-0.0162 0.03983,-3.5e-4 0.02181,0.007 0.04973,0.0207 0.07935,0.0468 0.02953,0.026 0.06482,0.0681 0.09716,0.1368 0.03284,0.0698 0.06303,0.16802 0.07911,0.30407 0.01637,0.13847 0.01765,0.31231 -0.0056,0.5282 -0.04927,0.45708 -0.204637,1.06686 -0.512041,1.86026 a 0.29744734,0.29503092 52.809876 0 0 -0.01834,0.13787 c 0.01212,0.11584 0.02555,0.22167 0.04045,0.31907 0.01491,0.0974 0.03201,0.18982 0.0519,0.27707 0.03829,0.16794 0.08752,0.3197 0.154064,0.45605 0.06499,0.13316 0.144592,0.24779 0.242394,0.34925 0.09475,0.0983 0.200543,0.178 0.314133,0.24906 0.1107,0.0692 0.232189,0.13229 0.359238,0.19563 0.12801,0.0638 0.265834,0.13002 0.417138,0.20755 0.308233,0.15794 0.66904,0.36105 1.104821,0.67379 l -0.04499,-0.0378 c -0.04096,-0.0401 -0.06039,-0.0812 -0.069,-0.10287 -0.0089,-0.0223 -0.0125,-0.0402 -0.01358,-0.0451 -0.0026,-0.0117 -0.0023,-0.005 -0.0054,0.0163 -0.0032,0.0218 -0.0082,0.0506 -0.01672,0.0895 -0.0086,0.0389 -0.0197,0.0836 -0.03359,0.13361 -0.02924,0.10522 -0.06845,0.22624 -0.115774,0.35606 -0.05142,0.14105 -0.11034,0.28686 -0.174068,0.43126 -0.166197,0.37658 -0.339118,0.68643 -0.489255,0.92195 -4e-6,1e-5 -0.0037,0.006 -0.0037,0.006 -0.275475,0.43102 -0.495544,0.64563 -0.598522,0.73625 a 0.38241768,0.38241768 90 0 0 0.505254,0.57418 c 0.151201,-0.13304 0.42677,-0.39959 0.740201,-0.90245 -4e-6,1e-5 0.0041,-0.007 0.0041,-0.007 0.167687,-0.26987 0.354173,-0.62177 0.525311,-1.03847 0.06593,-0.16053 0.126779,-0.32414 0.179304,-0.48392 0.04812,-0.1464 0.08907,-0.28905 0.119298,-0.41921 0.01442,-0.0621 0.0266,-0.12221 0.0359,-0.17894 0.009,-0.0549 0.01573,-0.10933 0.01878,-0.16092 0.0029,-0.0482 0.0032,-0.10545 -0.0054,-0.16295 -0.0043,-0.0288 -0.01206,-0.0658 -0.02731,-0.10523 -0.01478,-0.0382 -0.04182,-0.0923 -0.09216,-0.14177 a 0.2994174,0.11048317 60.32813 0 0 -0.04499,-0.0379 c -0.476005,-0.32909 -0.872783,-0.54088 -1.207872,-0.70147 -0.160935,-0.0771 -0.308565,-0.14283 -0.430631,-0.19891 -0.126167,-0.058 -0.226198,-0.10616 -0.311466,-0.15522 -0.08469,-0.0487 -0.148478,-0.0947 -0.200999,-0.14507 -0.05263,-0.0505 -0.09807,-0.10963 -0.138653,-0.18704 -0.04284,-0.0817 -0.08111,-0.18553 -0.114392,-0.32128 -0.01718,-0.0701 -0.03275,-0.14751 -0.04684,-0.23303 -0.01094,-0.0664 -0.02106,-0.13882 -0.03037,-0.2182 0.300881,-0.78859 0.471329,-1.4252 0.536202,-1.93476 0.03176,-0.24944 0.03817,-0.46796 0.02259,-0.65941 -0.01535,-0.18863 -0.05221,-0.35191 -0.107393,-0.49204 -0.05518,-0.1401 -0.127549,-0.25432 -0.210588,-0.34608 -0.08306,-0.0918 -0.172382,-0.15623 -0.256178,-0.20117 -0.166479,-0.0893 -0.31147,-0.10105 -0.340752,-0.10476 l 0.09516,0.0129 c -0.567744,-0.15886 -0.985462,-0.33984 -1.291832,-0.52423 -0.319641,-0.19239 -0.517104,-0.38782 -0.639768,-0.56671 -0.06446,-0.094 -0.11031,-0.18636 -0.142459,-0.27586 -0.03343,-0.0931 -0.05308,-0.18594 -0.06218,-0.27791 -0.01961,-0.19832 0.0093,-0.39914 0.06402,-0.59183 0.06259,-0.22053 0.158728,-0.42946 0.252093,-0.60678 0.06401,-0.12156 0.130129,-0.2346 0.186787,-0.32954 0.04232,-0.0709 0.08948,-0.14904 0.131801,-0.21995 0.115676,-0.19376 0.190229,-0.32626 0.237728,-0.43597 0.02879,-0.0665 0.04346,-0.11576 0.04916,-0.15341 0.0035,-0.023 0.0035,-0.041 0.0015,-0.0551 -0.0011,-0.008 -0.003,-0.0152 -0.0051,-0.0208 -0.0012,-0.003 -0.0025,-0.006 -0.0039,-0.008 z"
           id="path56789"
           inkscape:path-effect="#path-effect58926"
           inkscape:original-d="m 59.845884,117.80629 c -0.0066,0.006 -3.515782,3.13858 1.131626,4.41873 0,0 1.347174,2e-5 0.05389,3.341 0.185288,1.76022 0.741836,1.18017 2.586577,2.47878 0.148924,0.14895 -0.521437,2.2027 -1.508838,3.07156"
           sodipodi:nodetypes="ccccc" /><path
           style="fill:#000000;fill-opacity:1;fill-rule:nonzero;stroke:none;stroke-width:0.369797;stroke-linecap:round;stroke-linejoin:miter;stroke-dasharray:none;stroke-opacity:1"
           d="m 56.405727,113.17847 h 0 c -0.02127,0.0133 -0.09358,0.0689 -0.07487,0.15567 0.01364,0.0633 0.08139,0.17309 0.199717,0.31549 0.07798,0.0939 0.174986,0.19724 0.277177,0.28653 0.05097,0.0445 0.102987,0.0854 0.155041,0.12034 0.05475,0.0368 0.10998,0.0674 0.165082,0.0895 0.0371,0.0148 0.07612,0.0233 0.116571,0.0248 0.03872,0.001 0.07644,-0.004 0.112582,-0.0138 0.06903,-0.0192 0.131777,-0.0561 0.186866,-0.099 0.05482,-0.0427 0.105734,-0.0944 0.151589,-0.14842 0.04725,-0.0557 0.09045,-0.11539 0.12803,-0.17322 0.08794,-0.13533 0.145996,-0.25855 0.16988,-0.34018 0.0063,-0.0214 0.01028,-0.0403 0.01215,-0.057 0.01199,-0.10659 -0.06838,-0.15132 -0.09156,-0.16063 -0.02441,-0.01 -0.109468,-0.0329 -0.177829,0.0384 -0.0108,0.0113 -0.02188,0.0252 -0.03367,0.042 -0.04486,0.0641 -0.10129,0.17525 -0.172122,0.29482 -0.03058,0.0516 -0.06278,0.10272 -0.09626,0.14928 -0.03285,0.0457 -0.06455,0.0836 -0.09467,0.11267 -0.03082,0.0297 -0.05469,0.0449 -0.07118,0.0521 -0.0079,0.003 -0.01377,0.005 -0.01769,0.005 -0.0041,4.8e-4 -0.0079,1.9e-4 -0.01284,-0.002 -0.02729,-0.0109 -0.06036,-0.0306 -0.09852,-0.0606 -0.03602,-0.0283 -0.074,-0.0636 -0.113402,-0.10469 -0.07989,-0.0834 -0.15643,-0.18096 -0.224928,-0.27137 -0.105249,-0.13892 -0.169297,-0.22969 -0.224461,-0.2655 -0.06948,-0.0451 -0.148931,-0.004 -0.170692,0.009 z"
           id="path58955"
           sodipodi:nodetypes="csc"
           inkscape:path-effect="#path-effect58961"
           inkscape:original-d="m 56.405727,113.17847 c 0,0 0.434306,0.69308 0.777075,0.83017 0.342788,0.13708 0.731177,-0.83017 0.731177,-0.83017" /><path
           style="fill:#000000;fill-opacity:1;fill-rule:nonzero;stroke:none;stroke-width:0.369797;stroke-linecap:round;stroke-linejoin:miter;stroke-dasharray:none;stroke-opacity:1"
           d="m 59.551853,112.94997 h 0 c -0.02057,0.0142 -0.08814,0.0767 -0.04917,0.18147 0.0061,0.0165 0.015,0.0348 0.02682,0.055 0.04337,0.0743 0.136619,0.18925 0.265079,0.30273 0.05523,0.0488 0.117635,0.0977 0.184513,0.14065 0.06503,0.0418 0.135631,0.0788 0.209326,0.1045 0.07475,0.026 0.154009,0.0409 0.234545,0.0362 0.04166,-0.002 0.08267,-0.01 0.12262,-0.0232 0.04153,-0.0137 0.08041,-0.033 0.116676,-0.0572 0.06418,-0.0428 0.121169,-0.0955 0.171243,-0.15781 0.04727,-0.0588 0.08683,-0.12429 0.1198,-0.19405 0.06596,-0.13957 0.104255,-0.2938 0.124647,-0.43527 0.0239,-0.16581 0.02377,-0.31632 0.01049,-0.41571 -0.0036,-0.0267 -0.0081,-0.0506 -0.0137,-0.0716 -0.0097,-0.0368 -0.02455,-0.0687 -0.0412,-0.0957 -0.04031,-0.0655 -0.094,-0.10564 -0.110544,-0.12404 -0.01931,0.0215 -0.06652,0.058 -0.106259,0.12876 -0.01548,0.0276 -0.02896,0.0592 -0.03781,0.0946 -0.0051,0.0203 -0.0092,0.0429 -0.01281,0.068 -0.01364,0.0958 -0.01758,0.22894 -0.03236,0.3727 -0.01275,0.12411 -0.03324,0.24701 -0.07246,0.35314 -0.01926,0.0521 -0.0421,0.0976 -0.06873,0.13588 -0.02797,0.0402 -0.05951,0.0717 -0.09441,0.095 -0.01405,0.009 -0.02801,0.0156 -0.042,0.0193 -0.01346,0.004 -0.02778,0.005 -0.04328,0.005 -0.03026,-9.9e-4 -0.06659,-0.01 -0.109311,-0.0297 -0.04241,-0.0195 -0.08753,-0.0479 -0.134531,-0.0835 -0.04804,-0.0364 -0.09513,-0.0782 -0.140062,-0.12127 -0.103991,-0.0996 -0.188284,-0.19669 -0.249097,-0.25003 -0.01592,-0.014 -0.03039,-0.0252 -0.04393,-0.034 -0.08485,-0.0546 -0.162074,-0.0148 -0.184095,4.8e-4 z"
           id="path58957"
           inkscape:path-effect="#path-effect58963"
           inkscape:original-d="m 59.551853,112.94997 c 0,0 0.617012,0.89126 1.028355,0.61702 0.411343,-0.27422 0.342788,-1.09692 0.342788,-1.37114" /><path
           style="fill:#000000;fill-opacity:1;fill-rule:nonzero;stroke:none;stroke-width:0.369797;stroke-linecap:round;stroke-linejoin:miter;stroke-dasharray:none;stroke-opacity:1"
           d="m 58.012992,115.69964 c -0.0244,0.006 -0.110639,0.0367 -0.116635,0.13512 -9.45e-4,0.0155 -1.07e-4,0.0334 0.0026,0.0538 0.01047,0.0783 0.04905,0.19919 0.120593,0.34047 0.06031,0.1191 0.144951,0.25175 0.253164,0.35973 0.05422,0.0541 0.114379,0.10206 0.180707,0.13953 0.07046,0.0398 0.145232,0.0663 0.224203,0.0776 0.04191,0.006 0.08432,0.007 0.12681,0.001 0.04099,-0.005 0.08043,-0.0165 0.118057,-0.0333 0.03655,-0.0163 0.07003,-0.0374 0.100638,-0.0619 0.03005,-0.0241 0.0571,-0.0514 0.08151,-0.0806 0.04836,-0.0578 0.08781,-0.12468 0.120545,-0.19303 0.03369,-0.0703 0.06166,-0.14514 0.08492,-0.21723 0.05214,-0.16161 0.08875,-0.33539 0.103095,-0.43541 0.0041,-0.0287 0.0069,-0.0546 0.0084,-0.0777 0.0025,-0.0404 -1.92e-4,-0.077 -0.0049,-0.10969 -0.0047,-0.0325 -0.01157,-0.0621 -0.0175,-0.0873 -0.0091,-0.0386 -0.01543,-0.0664 -0.01504,-0.0858 -0.01803,0.006 -0.04805,0.0121 -0.08769,0.0338 -0.02635,0.0145 -0.05471,0.0346 -0.08251,0.0622 -0.02766,0.0274 -0.05386,0.0613 -0.07568,0.10163 -0.01247,0.023 -0.02443,0.0491 -0.03604,0.0782 -0.04813,0.12058 -0.07811,0.25621 -0.124,0.41943 -0.01845,0.0656 -0.03762,0.12786 -0.05915,0.18367 -0.02111,0.0547 -0.04275,0.0986 -0.06531,0.13235 -0.0111,0.0166 -0.02186,0.0298 -0.0321,0.0403 -0.01031,0.0105 -0.02013,0.0182 -0.02945,0.0238 -0.0095,0.006 -0.01944,0.01 -0.0305,0.0118 -0.0116,0.002 -0.02547,0.003 -0.04222,4.6e-4 -0.03671,-0.005 -0.07338,-0.0197 -0.110296,-0.0443 -0.03529,-0.0235 -0.07004,-0.0558 -0.103965,-0.0964 -0.06929,-0.0829 -0.125799,-0.18898 -0.173179,-0.29371 -0.0547,-0.1209 -0.09208,-0.2259 -0.125789,-0.28726 -0.0088,-0.0161 -0.01742,-0.0294 -0.02618,-0.0404 -0.05459,-0.0681 -0.141357,-0.0573 -0.167095,-0.0513 z"
           id="path58959"
           inkscape:path-effect="#path-effect58965"
           inkscape:original-d="m 58.012992,115.69964 c 0,0 0.205681,0.89126 0.685575,0.9598 0.479895,0.0686 0.479895,-0.9598 0.685567,-1.23402" /></g><g
         id="g72035"
         transform="matrix(1.2769902,0,0,1.2769902,-15.450712,0.89197761)"><path
           style="fill:#000000;fill-opacity:1;fill-rule:nonzero;stroke:none;stroke-width:0.2;stroke-linecap:round;stroke-linejoin:round;stroke-dasharray:none"
           d="m 59.127989,107.75955 c -0.357856,0.10393 -1.091961,0.3018 -1.835014,0.55256 -0.853106,0.28791 -1.888172,0.68439 -2.822251,1.02522 0.0052,-0.002 -0.181156,0.066 -0.175952,0.0641 -0.809874,0.29458 -1.505877,0.53989 -2.199542,0.7641 -0.142825,0.0462 -0.276649,0.0886 -0.403878,0.12819 -0.712988,0.22212 -1.129544,0.34027 -1.459355,0.40981 0.299542,-0.0182 0.809017,-0.0579 1.511148,-0.21664 0.130978,-0.0296 0.269599,-0.0632 0.416014,-0.10086 0.684052,-0.17615 1.450004,-0.42034 2.238168,-0.69825 0.05945,-0.021 0.118566,-0.042 0.177241,-0.0629 0.937494,-0.33512 1.979545,-0.73378 2.80583,-1.08199 0.661859,-0.27891 1.461084,-0.65738 1.747591,-0.78332 z"
           id="path72029"
           sodipodi:nodetypes="cc"
           inkscape:path-effect="#path-effect72031"
           inkscape:original-d="m 59.127989,107.75955 c -3.132035,1.13761 -6.654472,2.64123 -8.895992,2.94399" /><path
           style="fill:#e8e8e8;fill-opacity:1;fill-rule:evenodd;stroke:#000000;stroke-width:0.234927;stroke-linecap:round;stroke-linejoin:round;stroke-dasharray:none"
           d="m 51.514461,111.89619 c -0.206247,0.0971 -6.964907,-2.31819 -5.401397,-7.84891 0,0 0.843968,-1.68793 3.16488,2.32092 0,0 1.434748,3.41807 1.519145,4.09324 0,0 -0.337583,-1.56135 0.717372,-0.84397 1.05496,0.71738 1.931646,2.37687 0,2.27872 z"
           id="path61107"
           sodipodi:nodetypes="ccccsc" /></g><g
         id="g72039"
         transform="matrix(1.2769902,0,0,1.2769902,-15.450712,0.89197761)"><path
           style="fill:#000000;fill-opacity:1;fill-rule:nonzero;stroke:none;stroke-width:0.2;stroke-linecap:round;stroke-linejoin:round;stroke-dasharray:none"
           d="m 67.129737,106.84668 c -0.130482,0.16868 -0.520601,0.60693 -0.825633,0.97022 -0.422863,0.50362 -0.819648,1.00042 -1.373638,1.5274 -0.01154,0.011 -0.02309,0.0219 -0.03463,0.0328 -0.542458,0.5107 -1.089126,0.90934 -1.676113,1.32674 -0.435248,0.3095 -1.021508,0.71527 -1.249033,0.84936 0.313604,-0.10929 0.875453,-0.29252 1.413888,-0.58446 0.630679,-0.34195 1.226559,-0.80669 1.770209,-1.31587 0.01198,-0.0112 0.02397,-0.0225 0.03597,-0.0338 0.547917,-0.51713 1.032302,-1.07135 1.372383,-1.61395 0.280903,-0.44818 0.466503,-0.92654 0.566593,-1.1584 z"
           id="path72023"
           sodipodi:nodetypes="cc"
           inkscape:path-effect="#path-effect72025"
           inkscape:original-d="m 67.129737,106.84668 c -1.121937,1.90194 -2.676043,3.55586 -5.159047,4.7065" /><path
           style="fill:#e8e8e8;fill-opacity:1;fill-rule:evenodd;stroke:#000000;stroke-width:0.234927;stroke-linecap:round;stroke-linejoin:round;stroke-dasharray:none"
           d="m 60.992728,113.60834 c -0.846208,-0.13495 -6.035745,-4.80352 -2.026928,-8.51706 0,0 1.731539,-1.52617 2.955295,2.73587 0.196587,0.78635 -0.03663,3.60914 -0.0422,3.88226 -0.006,0.29533 0.0422,-0.59078 0.0422,-0.59078 0,0 1.9269,2.48971 -0.632978,2.48971 z"
           id="path72027"
           sodipodi:nodetypes="cccscsc" /></g><g
         id="g72091"
         transform="matrix(1.2769902,0,0,1.2769902,14.951853,-51.903873)"><path
           style="fill:#000000;fill-opacity:1;fill-rule:nonzero;stroke:none;stroke-width:0.3;stroke-linecap:round;stroke-linejoin:round;stroke-dasharray:none"
           d="m 37.880291,119.914 c 0.0036,0.0174 0.273512,0.0238 0.710092,-0.008 2.49e-4,-2e-5 0.05647,-0.004 0.05672,-0.004 0.152223,-0.0114 0.328722,-0.0245 0.484789,-0.0262 0.08082,-9e-4 0.155505,0.001 0.219275,0.008 0.03085,0.003 0.0581,0.007 0.08158,0.0123 0.02335,0.005 0.04117,0.0104 0.05437,0.0157 0.0013,3.6e-4 -0.001,-6.4e-4 -0.0051,-0.005 -0.0043,-0.004 -0.0092,-0.0104 -0.01283,-0.0187 -0.0035,-0.008 -0.0046,-0.0155 -0.0045,-0.0204 4e-5,-0.004 0.001,-0.007 8.06e-4,-0.005 -3.5e-4,0.004 -0.0047,0.0168 -0.01669,0.0367 -0.01176,0.0195 -0.02888,0.0429 -0.05167,0.0698 -0.04574,0.054 -0.10911,0.11608 -0.184507,0.18249 -0.07574,0.0667 -0.161561,0.136 -0.250035,0.20368 -0.02779,0.0212 -0.05581,0.0423 -0.08382,0.0631 -0.146612,0.10863 -0.301278,0.21419 -0.433238,0.30026 -0.144556,0.0943 -0.249558,0.15707 -0.250399,0.15408 l -0.05663,0.0843 c -0.0072,0.0365 -0.0074,0.0754 0.0038,0.11413 0.01143,0.0394 0.03282,0.0721 0.05933,0.0982 0.02609,0.0256 0.05616,0.0438 0.08534,0.0571 0.02977,0.0135 0.06141,0.0231 0.09272,0.03 0.06441,0.0143 0.137059,0.0197 0.208867,0.0205 0.07808,8.9e-4 0.161225,-0.004 0.240753,-0.0104 0.128129,-0.0111 0.258669,-0.0294 0.360626,-0.0473 0.0554,-0.01 0.109626,-0.0208 0.160855,-0.0323 0.09101,-0.0203 0.176837,-0.0425 0.24473,-0.0604 0.103649,-0.0272 0.17094,-0.0454 0.214719,-0.0523 -0.04381,-0.0126 -0.108792,-0.0339 -0.219319,-0.0521 -0.0738,-0.0121 -0.159351,-0.0213 -0.256554,-0.0257 -0.05344,-0.002 -0.10898,-0.003 -0.16547,-0.003 -0.115483,0.001 -0.221989,0.008 -0.355963,0.013 -0.07647,0.003 -0.152217,0.005 -0.220182,0.004 -0.06417,-0.001 -0.117281,-0.006 -0.157924,-0.0136 -0.01932,-0.004 -0.03308,-0.008 -0.04276,-0.0115 -0.0094,-0.004 -0.01227,-0.006 -0.01148,-0.004 0.0013,0.003 0.0047,0.007 0.0062,0.0145 0.0014,0.007 -5.66e-4,0.009 -5.28e-4,0.006 l -0.05663,0.0843 c -8.13e-4,-0.003 0.102509,-0.0722 0.246773,-0.17211 0.133454,-0.0924 0.285577,-0.1997 0.437603,-0.31251 0.02873,-0.0213 0.05758,-0.043 0.0863,-0.0648 0.09117,-0.0692 0.181683,-0.1408 0.26318,-0.2105 0.0803,-0.0687 0.153895,-0.13728 0.211225,-0.20145 0.02869,-0.0321 0.05468,-0.0646 0.07574,-0.0968 0.02068,-0.0316 0.03954,-0.0674 0.04967,-0.10565 0.0052,-0.0197 0.0085,-0.0416 0.0078,-0.0649 -7.65e-4,-0.0237 -0.0058,-0.0485 -0.01674,-0.0726 -0.01105,-0.0243 -0.02683,-0.045 -0.04561,-0.062 -0.01858,-0.0168 -0.03905,-0.0291 -0.05972,-0.0383 -0.03114,-0.014 -0.06478,-0.0243 -0.09887,-0.0322 -0.03478,-0.008 -0.07174,-0.0138 -0.109678,-0.0178 -0.07789,-0.008 -0.163966,-0.01 -0.250853,-0.007 -0.169663,0.005 -0.351547,0.0272 -0.506626,0.0537 -0.01919,0.003 -0.03837,0.007 -0.05751,0.0103 -0.536625,0.10014 -0.685035,0.2088 -0.682083,0.22307 z"
           id="path72074"
           inkscape:path-effect="#path-effect72076"
           inkscape:original-d="m 37.880291,119.914 c 0,0 1.30416,-0.26969 1.65622,-0.11636 0.35206,0.15333 -1.274096,1.1818 -1.274096,1.1818 -0.05788,0.32508 1.031905,0.0635 1.54786,0.0952"
           sodipodi:nodetypes="cscc" /><path
           style="fill:#000000;fill-opacity:1;fill-rule:nonzero;stroke:none;stroke-width:0.3;stroke-linecap:round;stroke-linejoin:round;stroke-dasharray:none"
           d="m 35.229877,120.09114 v 0 c 0.007,0.01 0.04592,0.007 0.202361,-0.071 0.07988,-0.0401 0.181533,-0.0955 0.289908,-0.15713 0.676892,-0.38482 -0.562034,0.31957 0.114858,-0.0653 0.06939,-0.0393 0.145375,-0.0818 0.219582,-0.12135 0.06891,-0.0367 0.137686,-0.0716 0.199927,-0.0999 0.02988,-0.0135 0.058,-0.0254 0.08374,-0.0352 0.02529,-0.01 0.04749,-0.0169 0.06608,-0.0217 0.01848,-0.005 0.03148,-0.007 0.0379,-0.006 0.0025,9e-5 0.004,6.9e-4 0.0013,9.4e-4 -0.0021,1.9e-4 -0.0081,3e-5 -0.01677,-0.003 -0.0082,-0.003 -0.01621,-0.007 -0.02367,-0.0122 -0.0074,-0.005 -0.01354,-0.011 -0.01847,-0.0169 -0.0097,-0.0115 -0.01367,-0.0214 -0.01554,-0.0266 -0.0018,-0.005 -0.0018,-0.007 -0.002,-0.004 -2.49e-4,0.003 -2.48e-4,0.006 -0.0012,0.0139 -0.0017,0.0148 -0.0053,0.0352 -0.01195,0.0627 -0.0065,0.027 -0.01541,0.0581 -0.02652,0.0933 -0.0224,0.0709 -0.05258,0.15387 -0.08752,0.24411 -0.03209,0.0829 -0.06777,0.1708 -0.104035,0.25881 -1.3e-4,3.2e-4 -0.01115,0.027 -0.01128,0.0273 -0.07169,0.17346 -0.167694,0.39983 -0.230188,0.56347 -0.03088,0.0809 -0.0576,0.15639 -0.07493,0.21848 -0.0085,0.0305 -0.01555,0.0606 -0.01941,0.0881 -0.0019,0.0138 -0.0033,0.0289 -0.0033,0.0443 2.6e-5,0.0146 0.0013,0.0348 0.0078,0.0564 0.0038,0.0127 0.0093,0.0254 0.0168,0.0376 0.0075,0.0123 0.01662,0.0232 0.02691,0.0327 0.02069,0.0191 0.04351,0.0298 0.06335,0.0357 0.01958,0.006 0.03808,0.008 0.05343,0.008 0.01564,1.1e-4 0.03064,-0.001 0.04429,-0.004 0.02718,-0.004 0.05519,-0.0124 0.08187,-0.0216 0.02759,-0.01 0.05674,-0.0213 0.0863,-0.0344 0.06114,-0.027 0.12862,-0.0616 0.195227,-0.0982 0.07195,-0.0395 0.145122,-0.0825 0.212802,-0.12407 0.147577,-0.0906 0.269648,-0.17413 0.345694,-0.23166 0.01266,-0.01 0.02461,-0.0189 0.03585,-0.028 0.143318,-0.11566 0.145885,-0.16273 0.138951,-0.17356 -0.0077,-0.012 -0.0494,-0.0264 -0.216016,0.0478 -0.01306,0.006 -0.0267,0.0121 -0.04087,0.0188 -0.08686,0.0413 -0.215258,0.1089 -0.365298,0.18466 -0.06904,0.0349 -0.142858,0.0714 -0.213406,0.10405 -0.06603,0.0306 -0.129166,0.0578 -0.183253,0.0775 -0.02605,0.009 -0.04918,0.0169 -0.0688,0.022 -0.01953,0.005 -0.03378,0.007 -0.04181,0.008 -0.0034,7e-5 -0.0056,-3.6e-4 -0.0037,-7.5e-4 0.0013,-2.6e-4 0.0067,-5.6e-4 0.01569,0.002 0.0091,0.002 0.02296,0.008 0.03671,0.0208 0.0068,0.006 0.01294,0.0135 0.01802,0.0216 0.0051,0.008 0.0086,0.0163 0.01098,0.0241 0.004,0.013 0.0037,0.0182 0.004,0.0192 2.33e-4,8.9e-4 6.3e-4,-0.002 0.0018,-0.007 0.0025,-0.0119 0.0069,-0.029 0.01486,-0.0543 0.01584,-0.0503 0.0406,-0.11658 0.07198,-0.19518 0.06593,-0.16514 0.155004,-0.37052 0.23226,-0.55657 -9.3e-5,2.3e-4 0.01155,-0.0279 0.01146,-0.0277 0.03677,-0.0889 0.07323,-0.17924 0.106045,-0.26533 0.03552,-0.0932 0.06737,-0.18305 0.0912,-0.26288 0.01187,-0.0398 0.02199,-0.0778 0.02962,-0.11325 0.0076,-0.0351 0.01316,-0.0697 0.01516,-0.102 0.001,-0.0163 0.0012,-0.0333 -1.06e-4,-0.0503 -0.0013,-0.0168 -0.0041,-0.0357 -0.01017,-0.055 -0.0061,-0.0194 -0.0162,-0.0418 -0.03353,-0.0628 -0.0088,-0.0106 -0.0192,-0.0206 -0.03135,-0.0293 -0.01221,-0.009 -0.02542,-0.0156 -0.03925,-0.0206 -0.01997,-0.007 -0.03918,-0.01 -0.05578,-0.0108 -0.01678,-8.4e-4 -0.03281,2.7e-4 -0.04736,0.002 -0.02898,0.004 -0.05815,0.0121 -0.08538,0.0216 -0.0282,0.01 -0.05762,0.0223 -0.08717,0.0361 -0.03032,0.0142 -0.06187,0.0303 -0.09377,0.0477 -0.06645,0.0361 -0.136862,0.0787 -0.205069,0.12245 -0.07413,0.0475 -0.147358,0.0975 -0.214051,0.14496 -0.03828,0.0272 -0.07473,0.0539 -0.108702,0.0794 -0.101347,0.076 -0.191147,0.15121 -0.257278,0.21232 -0.129472,0.11963 -0.14193,0.15858 -0.135636,0.16728 z"
           id="path72078"
           inkscape:path-effect="#path-effect72080"
           inkscape:original-d="m 35.229877,120.09114 c 0,0 1.063488,-0.76933 1.244508,-0.70145 0.181017,0.0679 -0.588315,1.53866 -0.54306,1.69705 0.04526,0.1584 1.176626,-0.56568 1.176626,-0.56568" /><path
           style="fill:#000000;fill-opacity:1;fill-rule:nonzero;stroke:none;stroke-width:0.3;stroke-linecap:round;stroke-linejoin:round;stroke-dasharray:none"
           d="m 39.20633,123.61017 c -0.0051,-0.0108 -0.04371,-0.0159 -0.212061,0.032 -0.08596,0.0245 -0.196175,0.0599 -0.314149,0.10023 -0.758899,0.25918 0.633876,-0.21653 -0.125022,0.0427 -0.07551,0.0256 -0.158092,0.0532 -0.23838,0.0782 -0.07456,0.0232 -0.148642,0.0447 -0.215053,0.0607 -0.03188,0.008 -0.06173,0.0141 -0.08884,0.0189 -0.02664,0.005 -0.0498,0.008 -0.06896,0.009 -0.01904,0.001 -0.03214,5.3e-4 -0.0384,-9.1e-4 -0.0024,-5.6e-4 -0.0038,-0.001 -0.0011,-0.001 0.0021,2e-4 0.0079,0.001 0.01594,0.006 0.0075,0.004 0.01461,0.01 0.02096,0.0164 0.0063,0.007 0.01124,0.0134 0.01499,0.02 0.0074,0.0131 0.0094,0.0235 0.0103,0.029 8.21e-4,0.005 5.93e-4,0.007 0.0012,0.005 8.11e-4,-0.003 0.0013,-0.006 0.0037,-0.0134 0.0044,-0.0142 0.01177,-0.0336 0.02345,-0.0593 0.01147,-0.0253 0.02599,-0.0542 0.04349,-0.0867 0.03525,-0.0655 0.08039,-0.14135 0.131571,-0.22348 0.047,-0.0754 0.09847,-0.15514 0.150538,-0.23482 1.87e-4,-2.9e-4 0.016,-0.0245 0.01619,-0.0247 0.06031,-0.0921 0.114388,-0.1737 0.174697,-0.26579 0.05498,-0.084 0.109603,-0.16846 0.156672,-0.24478 0.04544,-0.0737 0.08579,-0.14287 0.114408,-0.20064 0.01407,-0.0284 0.02659,-0.0566 0.03552,-0.0829 0.0045,-0.0132 0.0087,-0.0278 0.01154,-0.0429 0.0027,-0.0144 0.0052,-0.0345 0.0029,-0.0569 -0.0014,-0.0132 -0.0044,-0.0267 -0.0095,-0.0401 -0.0051,-0.0135 -0.01199,-0.0259 -0.02033,-0.0372 -0.01676,-0.0226 -0.03718,-0.0374 -0.05557,-0.0469 -0.01815,-0.009 -0.036,-0.0145 -0.05106,-0.0175 -0.01534,-0.003 -0.03037,-0.004 -0.04418,-0.005 -0.02752,-7.9e-4 -0.05652,0.002 -0.08445,0.006 -0.02887,0.004 -0.05972,0.0103 -0.0912,0.0176 -0.06511,0.0151 -0.137859,0.0365 -0.210121,0.06 -0.07806,0.0254 -0.157981,0.054 -0.232229,0.0821 -0.1619,0.0614 -0.297425,0.12072 -0.382878,0.16304 -0.01422,0.007 -0.02771,0.014 -0.04045,0.0208 -0.162399,0.0869 -0.173709,0.13262 -0.168921,0.14456 0.0053,0.0132 0.0436,0.0352 0.221135,-0.007 0.01392,-0.003 0.02849,-0.007 0.04367,-0.0109 0.09305,-0.0244 0.231809,-0.0668 0.393358,-0.11319 0.07434,-0.0213 0.153674,-0.0434 0.229085,-0.0624 0.07058,-0.0177 0.137692,-0.0327 0.194499,-0.0419 0.02736,-0.004 0.05147,-0.007 0.07169,-0.009 0.02014,-0.001 0.03457,-9.5e-4 0.04249,3.8e-4 0.0033,5.6e-4 0.0054,0.001 0.0035,0.001 -0.0013,2e-5 -0.0067,-7e-4 -0.01506,-0.005 -0.0085,-0.004 -0.02101,-0.0124 -0.03219,-0.0273 -0.0055,-0.007 -0.01019,-0.0157 -0.01366,-0.0246 -0.0035,-0.009 -0.0054,-0.0176 -0.0063,-0.0257 -0.0015,-0.0135 -2.36e-4,-0.0186 -3.11e-4,-0.0196 -6.5e-5,-9.1e-4 -9.76e-4,0.002 -0.0031,0.007 -0.0047,0.0112 -0.01221,0.0272 -0.02474,0.0506 -0.02496,0.0465 -0.06165,0.10695 -0.10716,0.1783 -0.04635,0.0727 -0.100476,0.15452 -0.155854,0.2378 -0.06087,0.0915 -0.117365,0.17599 -0.176263,0.26561 1.34e-4,-2.1e-4 -0.01655,0.0252 -0.01642,0.025 -0.05274,0.0805 -0.105419,0.16241 -0.153731,0.24086 -0.0523,0.0849 -0.100374,0.16724 -0.13869,0.24122 -0.01908,0.0368 -0.03613,0.0724 -0.05025,0.10573 -0.01398,0.0331 -0.02594,0.066 -0.03394,0.0974 -0.004,0.0159 -0.0074,0.0325 -0.0093,0.0494 -0.0019,0.0168 -0.0026,0.0359 -2.81e-4,0.056 0.0023,0.0202 0.0081,0.0441 0.02121,0.068 0.0066,0.0121 0.01501,0.0238 0.02534,0.0346 0.01037,0.0108 0.02206,0.0201 0.03471,0.0276 0.01828,0.0107 0.03662,0.0171 0.05277,0.021 0.01632,0.004 0.03228,0.006 0.04695,0.007 0.0292,0.002 0.0594,-0.001 0.08793,-0.005 0.02954,-0.004 0.06077,-0.0111 0.09237,-0.0192 0.03244,-0.008 0.06645,-0.0182 0.101025,-0.0293 0.07203,-0.0231 0.149159,-0.0518 0.224334,-0.082 0.0817,-0.0328 0.162971,-0.0683 0.237357,-0.10245 0.04269,-0.0196 0.08348,-0.039 0.121611,-0.0577 0.113749,-0.0557 0.216021,-0.11286 0.292399,-0.16054 0.149533,-0.0934 0.169045,-0.12929 0.164486,-0.13901 z"
           id="path72082"
           inkscape:path-effect="#path-effect72086"
           inkscape:original-d="m 39.20633,123.61017 c 0,0 -1.188434,0.55722 -1.353613,0.45669 -0.165151,-0.10051 0.865317,-1.40172 0.850438,-1.56578 -0.01488,-0.16406 -1.26157,0.33599 -1.26157,0.33599" /></g></g></g></svg>
